0.25 0.25 0.25 0.25 0 0 0 0 0 0 0 0 0 0 0 0 0 0 0
0.333333 0 0.333333 0 0.333333 0 0 0 0 0 0 0 0 0 0 0 0 0 0
0.25 0 0 0 0 0.125 0.25 0.125 0.125 0.125 0 0 0 0 0 0 0 0 0
0.0833333 0 0 0 0 0 0 0 0 0.0833333 0.0833333 0.0833333 0.0833333 0.166667 0.0833333 0.166667 0.0833333 0.0833333 0
1 0 0 0 0 0 0 0 0 0 0 0 0 0 0 0 0 0 0
0.2 0 0.2 0 0 0 0 0 0 0 0 0.2 0 0 0 0 0.2 0 0.2
