^E:\HOMEWORK\GRADE_3_LAST\AI\PROJECT\MYPROJECT\MYPROJECT\RELEASE\VERSION_12_23.OBJ
C:\WINDOWS\GLOBALIZATION\SORTING\SORTDEFAULT.NLS
C:\PROGRAM FILES (X86)\WINDOWS KITS\8.1\LIB\WINV6.3\UM\X86\KERNEL32.LIB
C:\PROGRAM FILES (X86)\WINDOWS KITS\8.1\LIB\WINV6.3\UM\X86\USER32.LIB
C:\PROGRAM FILES (X86)\WINDOWS KITS\8.1\LIB\WINV6.3\UM\X86\GDI32.LIB
C:\PROGRAM FILES (X86)\WINDOWS KITS\8.1\LIB\WINV6.3\UM\X86\WINSPOOL.LIB
C:\PROGRAM FILES (X86)\WINDOWS KITS\8.1\LIB\WINV6.3\UM\X86\COMDLG32.LIB
C:\PROGRAM FILES (X86)\WINDOWS KITS\8.1\LIB\WINV6.3\UM\X86\ADVAPI32.LIB
C:\PROGRAM FILES (X86)\WINDOWS KITS\8.1\LIB\WINV6.3\UM\X86\SHELL32.LIB
C:\PROGRAM FILES (X86)\WINDOWS KITS\8.1\LIB\WINV6.3\UM\X86\OLE32.LIB
C:\PROGRAM FILES (X86)\WINDOWS KITS\8.1\LIB\WINV6.3\UM\X86\OLEAUT32.LIB
C:\PROGRAM FILES (X86)\WINDOWS KITS\8.1\LIB\WINV6.3\UM\X86\UUID.LIB
C:\PROGRAM FILES (X86)\WINDOWS KITS\8.1\LIB\WINV6.3\UM\X86\ODBC32.LIB
C:\PROGRAM FILES (X86)\WINDOWS KITS\8.1\LIB\WINV6.3\UM\X86\ODBCCP32.LIB
E:\HOMEWORK\GRADE_3_LAST\AI\PROJECT\MYPROJECT\MYPROJECT\RELEASE\VERSION_12_23.OBJ
F:\STUDY-TOOLS\VS\VC\BIN\C2.DLL
F:\STUDY-TOOLS\VS\VC\LIB\MSVCPRT.LIB
F:\STUDY-TOOLS\VS\VC\LIB\MSVCRT.LIB
F:\STUDY-TOOLS\VS\VC\LIB\OLDNAMES.LIB
F:\STUDY-TOOLS\VS\VC\LIB\VCRUNTIME.LIB
C:\PROGRAM FILES (X86)\WINDOWS KITS\10\LIB\10.0.10240.0\UCRT\X86\UCRT.LIB
F:\STUDY-TOOLS\VS\VC\BIN\2052\LINKUI.DLL
E:\HOMEWORK\GRADE_3_LAST\AI\PROJECT\MYPROJECT\RELEASE\MYPROJECT.IPDB
E:\HOMEWORK\GRADE_3_LAST\AI\PROJECT\MYPROJECT\RELEASE\MYPROJECT.IOBJ
C:\PROGRAM FILES (X86)\WINDOWS KITS\8.1\BIN\X86\RC.EXE
F:\STUDY-TOOLS\VS\VC\BIN\CVTRES.EXE
C:\WINDOWS\SYSTEM32\TZRES.DLL
