25793.9
24199.7
22852.9
21714.6
20751.9
19941.4
19249.3
18665
18160.7
17730.3
17351
17032.3
16767.6
16533.9
16328.2
16143.8
15978.6
15842.5
15728.4
15625.8
15530.6
15443.8
15366.9
15291.9
15218.6
15148.4
15084.8
15025.1
14968.6
14910.8
14857.5
14806.8
14754.1
14702.8
14651.5
14605.3
14560.3
14521
14484.7
14446.2
14409.4
14374
14338.4
14302.9
14272.2
14243.1
14212.4
14182.3
14157
14131.8
14105
14076
14047.8
14024.9
14003.7
13982.8
13962.2
13941.3
13920.3
13899.5
13878.2
13856.9
13837.4
13819.1
13801.9
13785.2
13768.3
13750.5
13733.4
13716.4
13699.8
13684.1
13669
13654.6
13640.4
13626.5
13612.8
13598.4
13581.9
13566.9
13554.9
13543.3
13531.9
13520.7
13509.5
13498.5
13487.5
13476.8
13466.4
13456.1
13446
13436
13426
13416.2
13406.4
13396.6
13386.9
13377.1
13367.2
13356.8
13345.7
13334.2
13322.7
13311
13298.9
13285.3
13272.1
13262.2
13252.6
13242.8
13233
13223.5
13213.9
13204.4
13195.1
13186
13176.9
13167.9
13159.1
13150.5
13142
13133.7
13125.5
13117.5
13109.4
13101.3
13093.2
13084.8
13076
13066.7
13056.6
13045.7
13035
13024
13013.4
13003.5
12994.1
12984.6
12975.2
12966.2
12957.5
12949.1
12940.9
12933.1
12925.5
12917.8
12910
12901.9
12893.8
12886.3
12878.6
12871.1
12864
12857
12850
12842.7
12835.4
12828.2
12821.2
12814.5
12807.9
12801.5
12795.1
12788.6
12781.9
12775
12767.7
12760.1
12752.7
12746.2
12740
12733.8
12727.6
12721.4
12715
12708.4
12701.7
12695.3
12689
12681.7
12670.5
12659
12651.1
12643.9
12636.4
12629.1
12622.4
12616
12609.5
12602.9
12596
12587.9
12579.3
12572.8
12566.4
12560.1
12553.6
12546.8
12538.6
12530
12521.8
12513.1
12504.6
12495.2
12481.3
12470.6
12461.7
12452.8
12445.9
12439.8
12433.9
12428.1
12422.3
12416.5
12411
12405.4
12400.1
12394.5
12389.2
12383.8
12378.5
12373.3
12368.1
12363.1
12358.1
12353.2
12348.2
12343.4
12338.5
12333.7
12328.8
12324
12319.2
12314.4
12309.6
12304.8
12299.9
12295
12289.9
12284.7
12279
12272.8
12265.8
12258
12249.9
12244.4
12239
12233.6
12228.1
12222.6
12217.1
12211.5
12205.8
12200
12194.3
12188.7
12183
12177.5
12171.9
12166.3
12160.4
12154.2
12147.3
12140.1
12133.7
12127.4
12121.8
12116.7
12111.8
12106.8
12101.8
12096.8
12092
12087.4
12082.9
12078.5
12074.1
12069.6
12065
12060.1
12054.8
12048.7
12042.5
12037.1
12032
12027.1
12022.4
12018
12013.6
12009.3
12004.8
12000.1
11995.5
11990.9
11986.3
11981.4
11976.2
11970.9
11965.5
11960.3
11955.3
11950.3
11945.4
11940.5
11935.7
11930.7
11925.6
11920.3
11914.8
11909
11903.2
11897.3
11891.5
11885.6
11879.6
11873.6
11867.4
11861.3
11855.3
11849.4
11843.5
11837.4
11831.2
11825.1
11819.4
11814
11808.9
11804.3
11800.8
11797.5
11796.7
11789.1
11786.6
11779.5
11776.4
11771
11767
11762.5
11758
11754
11749.5
11745.7
11741.2
11737.5
11733.3
11729.6
11725.7
11722
11718.3
11714.7
11711.1
11707.6
11704.2
11700.8
11697.4
11694.1
11690.7
11687.5
11684.2
11681
11677.8
11674.5
11671.3
11668
11664.5
11660.4
11656.2
11652.4
11648.6
11645
11641.3
11637.7
11633.9
11629.5
11624.1
11618.4
11613.3
11608.2
11604.2
11600.2
11595.9
11590.1
11585.2
11580.4
11575.7
11571.1
11566.6
11562
11557.4
11552.6
11547.5
11542.5
11537.8
11533.3
11528.8
11524.6
11520.5
11516.5
11512.5
11508.5
11504.5
11500.6
11496.7
11492.8
11489
11485.2
11481.4
11477.5
11473.4
11468.2
11461.9
11456.4
11451.8
11447.3
11442.5
11439
11435.7
11432.4
11429.1
11425.8
11422.6
11419.3
11416
11412.6
11409.2
11405.9
11402.7
11399.5
11396.3
11393.2
11390.1
11387.1
11384
11381
11378
11375
11371.9
11368.8
11365.7
11362.5
11359.3
11356
11352.4
11348.1
11343.8
11339.5
11333.8
11328.4
11325.2
11322.2
11319.2
11316.2
11313.2
11310.2
11307.2
11304.1
11300.9
11297.6
11294.2
11290.7
11287.1
11283.5
11279.9
11276
11271.3
11266.6
11263.1
11258.4
11250.5
11246.6
11243.5
11240.7
11235.3
11231.6
11227.6
11222.4
11213.9
11206.4
11198.7
11194
11189.9
11186.1
11182.9
11182
11178
11177.2
11168.2
11164.6
11161.1
11158.3
11158.3
11154.5
11149.6
11145.9
11140.1
11136.4
11131.5
11128.1
11124.2
11121.2
11117.9
11114.9
11111.8
11108.7
11105.5
11102.2
11098.5
11094.5
11090.3
11086.7
11082.4
11074.3
11072.2
11066.2
11065.1
11056.1
11052.5
11049.8
11048.4
11043.9
11041.8
11036.9
11033.7
11030.9
11028.3
11026
11024.5
11021.3
11019.3
11015.9
11013.5
11011.1
11008.8
11006.5
11004.2
11001.9
10999.6
10997.4
10995.2
10992.9
10990.6
10988.3
10985.7
10983
10980.3
10977.8
10975.4
10973
10970.4
10967.7
10965.1
10962.6
10959.9
10956.6
10953.9
10951.8
10949.8
10947.7
10945.6
10943.6
10941.5
10939.5
10937.4
10935.4
10933.4
10931.4
10929.4
10927.4
10925.4
10923.4
10921.5
10919.6
10917.6
10915.8
10913.7
10912
10909.6
10907.9
10905.7
10904.1
10901.1
10898.9
10896.4
10894.3
10890.2
10887.6
10885.5
10883.5
10881.6
10877.8
10870.6
10866.6
10863
10859.7
10856.9
10854.3
10852.1
10850.3
10846.9
10844.7
10842.5
10840.2
10838
10835.7
10833.2
10830.6
10827.7
10824.5
10821.2
10817.8
10814.4
10811
10807.7
10804.6
10801.6
10798.9
10797.3
10798
10793.1
10790.3
10787.5
10784.8
10782.2
10779.7
10777.2
10774.7
10772.2
10769.6
10766.9
10763.8
10759.4
10755.1
10752.5
10750.1
10747.8
10746.5
10742.6
10741.3
10737.3
10735.4
10732.7
10730.9
10727.8
10725.6
10722.7
10720.2
10716.3
10713.3
10710.2
10707.9
10703.4
10700.2
10697.4
10694.2
10691.5
10686.5
10682.2
10678.2
10674.1
10670.5
10665
10660.4
10656.5
10652.7
10649.6
10646.5
10643.5
10640.4
10637.8
10634.1
10630.6
10625.5
10620.5
10616
10611.8
10607.6
10603.7
10599.3
10595.2
10591
10587.4
10584.3
10581.7
10579.3
10577
10573.6
10571.5
10569
10569.3
10565.8
10565.6
10557.3
10554.4
10550.1
10548
10544.1
10543.3
10537.2
10534
10526.9
10524.1
10518.5
10517
10512.1
10512.1
10506.8
10507
10502.5
10503.1
10498.7
10499.1
10494.9
10495.3
10491.2
10491.6
10487.5
10488
10483.7
10484.2
10479.2
10478.5
10473.2
10473.3
10468
10468.1
10462.6
10462.7
10457.8
10458.1
10453.1
10453.1
10450
10451.2
10445.1
10443.6
10442.8
10444.2
10438.3
10438.3
10434.7
10434.2
10431.6
10431.6
10429.2
10429.4
10425.6
10424.4
10418.8
10417.5
10415.6
10416.3
10410.9
10411.9
10409.4
10411
10403.3
10403.8
10404.4
10401.3
10397.6
10395.3
10391.1
10388.7
10384.9
10382.7
10380.3
10382.9
10374.6
10375.8
10374.3
10379.4
10366.4
10364.1
10362.6
10364.5
10366.9
10364.2
10362.3
10359.9
10358.2
10355
10353.5
10350.5
10348.5
10346.5
10345.1
10343.9
10343.6
10342.6
10341.6
10340
10337.5
10336
10333.2
10332.3
10330.1
10329.8
10328.3
10328.6
10327.1
10327
10324.2
10323.8
10320.8
10320.4
10318
10317.7
10315.6
10315.4
10313.6
10313.5
10311.6
10311.5
10309.4
10309
10306.8
10306.3
10304.3
10303.7
10302
10301.4
10299.8
10299.2
10297.8
10297.2
10295.9
10295.2
10293.8
10293.1
10291.6
10290.7
10289.3
10288.3
10287
10286
10284.9
10283.8
10282.8
10281.8
10280.8
10279.8
10278.8
10277.8
10276.8
10275.8
10274.7
10273.7
10272.6
10271.7
10270.5
10269.6
10268.5
10267.6
10266.5
10265.6
10264.5
10263.7
10262.7
10261.8
10260.9
10260
10259.1
10258.1
10257.3
10256.1
10255.4
10254.2
10253.6
10252.3
10251.8
10250.5
10250.3
10249.1
10249.2
10248.4
10248.2
10247.6
10246.3
10244.5
10244.3
10242.6
10242.7
10241.1
10241.3
10240.2
10240.4
10239.7
10239.2
10238.3
10237.9
10236.7
10236.6
10235
10235.2
10233.3
10233.8
10231.5
10232.3
10229.8
10230.9
10228.2
10229.7
10226.9
10228.6
10225.3
10227.1
10223.2
10224.7
10218.6
10218
10213.2
10214.1
10208.5
10210.2
10205.1
10207.7
10203.9
10207
10202.4
10205.3
10201.1
10204.3
10199.5
10202
10199
10202.3
10196.6
10196.7
10196
10199
10195.2
10194.5
10195.5
10196.8
10193.3
10187.8
10189.2
10188.2
10190.9
10185.5
10190.2
10187.8
10195.9
10199
10185.6
10182.2
10182.2
10181.1
10184.7
10180.5
10183
10181.6
10180.4
10178.7
10179.7
10177.4
10177.1
10177.1
10176.3
10174.3
10173.7
10175.2
10172.6
10170.9
10172.1
10174.9
10168.6
10165.7
10168.6
10173.1
10167.5
10168.6
10164
10165.2
10168.8
10173.9
10159.8
10159
10163.2
10173.4
10178.1
10157.1
10157.9
10152.2
10151.1
10150.5
10151.2
10150.8
10153.1
10148.6
10158.3
10185
10188
10146.4
10159.4
10168.4
10156.4
10161.5
10159.2
10143.9
10142.5
10141.9
10141.5
10145.1
10166.4
10160.5
10149.1
10167.3
10143.3
10154.9
10153.4
10136.4
10137.3
10151.5
10135.8
10135.7
10143.3
10161.9
10141.9
10157.7
10145.8
10132.3
10142.9
10132.7
10145.8
10130.8
10139.3
10144.1
10129.7
10138
10140.8
10127.8
10131.3
10141.7
10127.7
10136.3
10137.8
10127.8
10125.1
10124.5
10123.1
10134.1
10141.3
10126.4
10134.9
10132.2
10119.8
10132.2
10117.1
10116.8
10121.5
10133.8
10118.8
10143.3
10147.6
10127.3
10127.6
10126
10113
10119
10133.7
10132
10120.8
10121
10120.3
10112.7
10122.6
10113.9
10118.2
10118.5
10119.8
10115.3
10120.3
10110.2
10106.1
10109
10120.1
10110.3
10114.5
10115.5
10103.3
10117.4
10119.2
10108.9
10115
10115.9
10104.6
10117.8
10120
10110.9
10108.7
10107.9
10113.3
10103.7
10101.1
10098.8
10102.3
10101
10101.5
10100.8
10100.3
10099.4
10098.7
10097.5
10096.5
10096.3
10093.6
10096
10093.1
10094
10094.7
10095.3
10095.5
10099
10090.1
10091.9
10091
10092.2
10088.4
10088.9
10089.8
10090.9
10088.1
10087.5
10091.5
10096.8
10085.5
10091.9
10090.6
10098.6
10095.3
10085
10089.9
10093.1
10092
10087.8
10081.9
10081.3
10084.5
10079.4
10080.3
10080.2
10085.2
10078.4
10079.5
10081.2
10079.1
10081.6
10079.4
10080.7
10087.6
10085.7
10078.6
10076.4
10080.4
10074.9
10074.2
10076.6
10077.1
10080.1
10082.3
10079.3
10072
10071.4
10073.6
10070.5
10070.6
10072.1
10076
10073.2
10066.7
10066.3
10066.1
10067.8
10068.3
10072.9
10076.5
10078.1
10068
10063.3
10062.5
10062
10062.2
10064.9
10071
10072.9
10069.1
10063
10061.6
10064
10067.9
10065.4
10058.1
10057.4
10057
10057.9
10058.6
10071.5
10077.8
10064.5
10062.6
10057.8
10054.7
10055.7
10055.1
10068.6
10076.8
10063.1
10058.7
10053.9
10051.4
10051
10051.3
10059.8
10062.7
10059
10057.1
10056.7
10055.9
10055.5
10054.3
10053.7
10052.4
10052
10050.8
10050.4
10049.4
10049
10048
10047.6
10046.5
10046.1
10045.1
10044.7
10043.9
10043.6
10042.9
10042.6
10042
10041.7
10041.4
10041.2
10041.5
10039.9
10039.5
10039.1
10038.7
10038.1
10037.7
10037.2
10036.7
10036.2
10035.8
10035.3
10034.9
10034.4
10034
10033.5
10033
10032.5
10031.9
10031.2
10030.5
10029.8
10029.2
10028.5
10027.9
10027.7
10029.8
10039.2
10035.2
10033.4
10039.7
10036
10055.6
10039.7
10036.5
10030
10030.7
10034.3
10030.7
10031.2
10027.8
10026.8
10027.8
10031.3
10027.7
10030
10026.3
10027.1
10024.4
10024.8
10025.1
10029.2
10026.1
10028.4
10025.6
10025.6
10022.3
10021.2
10020
10020.3
10020.3
10024.6
10022.7
10026.2
10026.6
10014.6
10014.2
10013.4
10020.5
10026.6
10024.6
10021.9
10012.6
10013.3
10015.4
10022.6
10022.5
10015.9
10019.8
10034.9
10018.2
10017.1
10011.7
10008.9
10008
10007.8
10009.6
10005.6
10008.3
10005
10009.5
10005
10010.7
10011.6
10014.1
10013.2
10030.8
10006.4
10004.7
10006.3
10009.8
10006.8
10012.5
10005.5
10008.7
10008.1
10029.1
10002.9
10007.3
9998.3
9997.06
9996.24
9993.91
9993.9
9991.47
9991.88
9990.58
9992.01
9989.3
9990.98
9988.2
9990.14
9987.41
9989.76
9988.09
9992.62
10002.3
9999.87
9989.35
9995.07
9997.02
9996.13
9993.92
9998.69
9991.78
9998.34
9981.68
9979.18
9979.6
9976.87
9976.98
9975.56
9976.75
9973.54
9974.24
9974.17
9979.58
9989.93
9970.93
9972.08
9971.29
9976.14
9988.4
9968.43
9972.15
9979.98
9985.26
9982.04
9982.58
9976.53
9985.43
9978.26
10007.7
9985.56
9980
10008.5
9979.22
9974.34
10005.3
9979.51
9974.01
10001.7
9974.48
9970.68
10003.3
9975.83
9970.6
9994.09
9967.15
9969.28
10005.7
9970.38
9968.05
9975.39
9954.2
9951.8
9951.93
9952.2
9952.86
9951.07
9949.46
9949.95
9949.9
9950.98
9961.87
9965.04
9966.37
9960.78
9966.2
9967.35
9964.43
9979.4
9948.94
9959.82
9965.7
9952.1
9956.42
9974.55
9958.82
9989.78
9948.84
9948.77
9957.73
9943.62
9943.27
9946.09
9934.73
9938.88
9939.75
9942.61
9933.09
9939.75
9943.39
9975.21
9948.23
9977.94
9939.75
9969.93
9954.15
9935.62
9932.05
9938.1
9940.32
9976.55
9937.75
9970.42
9943.5
9978.19
9937.52
9971.09
9938.42
9976.08
9936.07
9969.15
9938.89
9977.24
9936.25
9970.3
9934.54
9970.2
9934.62
9967.64
9936.49
9973.69
9933.13
9963.13
9941.99
9971.6
9932.3
9955.54
9950.82
9919.95
9923.12
9915.02
9921.27
9912.9
9919.7
9918.85
9946.11
9931.75
9923.49
9933.98
9938.57
9928.37
9919.22
9923.78
9926.73
9930.04
9935.6
9926.54
9932.1
9925.03
9929.96
9904.59
9911.68
9917.54
9931.38
9922.64
9925.94
9922.52
9928.78
9917.2
9919.72
9918.27
9907.79
9896.68
9902.03
9923.09
9928.53
9914.41
9912.5
9900.92
9922.3
9903
9920.03
9915.1
9919.12
9912.45
9916.73
9907.45
9902.09
9909.75
9907.35
9899.72
9916.63
9903.36
9898.85
9907.61
9909.06
9894.59
9911.87
9906.81
9905.53
9889.26
9909.74
9905.55
9903.92
9887.27
9909.36
9904.28
9901.24
9882.86
9895.8
9903.45
9897.5
9879.68
9884.67
9914.59
9907.42
9891.72
9898.37
9900.9
9897.18
9876.8
9887.63
9898.97
9892.97
9873.68
9873.89
9879.77
9913.13
9897.78
9890.27
9870.89
9879.48
9906.02
9899.51
9882.81
9895.22
9894.59
9887.22
9869.83
9882.97
9879.92
9895.62
9881.16
9884.88
9891.71
9883.04
9867.56
9882.04
9869.74
9888.54
9873.13
9893.65
9888.15
9876.18
9872.53
9890.98
9863.93
9886.49
9885.36
9873.11
9874.13
9886.6
9871
9881.36
9882.77
9868.53
9879.49
9881.96
9862.22
9891.31
9885.84
9862.35
9889.18
9886.43
9862.23
9890.32
9885.53
9864.52
9877.59
9881.91
9866.78
9869.08
9877.4
9850.38
9849.26
9848.98
9848.61
9853.46
9887.51
9883.33
9853.39
9886.75
9880.2
9860.69
9867.87
9874.12
9845.2
9853.73
9873.42
9859.57
9857.39
9872.74
9857.37
9858.16
9871.32
9855.2
9858.72
9869.83
9854.05
9857.65
9868.86
9852.3
9857.47
9867.59
9851.29
9857.03
9866.88
9850.77
9855.14
9867.88
9850.04
9861.6
9864.61
9844.09
9865.7
9866.19
9845.82
9860.19
9860.84
9832.02
9835.42
9856.53
9835.25
9855.25
9830.92
9836.33
9864.8
9862.68
9836.31
9864.26
9859.86
9835.04
9858.2
9859.14
9837.68
9852.18
9852.43
9823.62
9836.43
9855.58
9833.92
9851.93
9850.74
9825.88
9854.24
9854.76
9829.28
9851.51
9851.06
9830.57
9839.45
9847.36
9818.65
9832.23
9848.42
9826.66
9839.97
9844.83
9816.27
9832.45
9845.01
9822.02
9841.59
9843.83
9819.72
9840.58
9842.59
9818.76
9836.34
9840.03
9812.89
9836
9839.55
9814.26
9833.98
9837.93
9811.82
9831.82
9835.94
9808.97
9829.47
9833.91
9806.46
9826.73
9831.43
9803
9823.56
9828.84
9799.61
9819.58
9825.56
9794.71
9810.5
9822.17
9790.71
9799.2
9824.13
9795.81
9825.93
9825.05
9805.88
9812.25
9818.02
9790.57
9820.34
9818.4
9797.18
9812.26
9824.59
9788.49
9811.48
9816.28
9793.25
9813.33
9823.11
9789.11
9803.75
9811.83
9791.13
9813.23
9819.64
9786.12
9801.34
9810.07
9789.45
9809.41
9816.91
9783.36
9797.22
9804.99
9781.45
9807.04
9816.3
9782.25
9790.02
9798.75
9773.77
9797.96
9804.42
9788.32
9812.53
9798.47
9773.9
9793.37
9800.97
9785.47
9807.7
9794.83
9771.2
9787.62
9793.88
9783.62
9806.29
9790.55
9768.78
9782.87
9791.71
9785.15
9802.85
9785.35
9764.21
9779.84
9790.08
9780.92
9797.82
9780.64
9757.39
9776.56
9791.98
9765.33
9772.53
9805.3
9784.23
9752.09
9761.04
9756.03
9782.53
9746.89
9759.36
9761.1
9778.27
9746.97
9769.06
9739.87
9745.32
9774.54
9787.78
9792.8
9764.36
9736.83
9741.15
9744.7
9773.13
9743.71
9766.19
9793
9757.54
9791.93
9736.54
9737.4
9761.17
9739.12
9756.56
9776.06
9759.24
9730.8
9755.43
9758.16
9793.47
9737.39
9746.99
9766.4
9789.31
9781.95
9750.96
9730.29
9747.93
9743.11
9758.6
9726.07
9741.79
9746.09
9772.41
9748.15
9772.02
9737.07
9751.98
9746.17
9760.52
9780.6
9754.57
9728.41
9736.66
9729.07
9738.93
9723.91
9733.59
9735.43
9754.53
9735.42
9766.41
9726.54
9735.86
9720
9727.29
9730.7
9743.92
9729.73
9743.16
9755.22
9733.94
9725.57
9736.06
9748.94
9779.09
9775.81
9747.87
9735.53
9745.4
9733.14
9744.77
9736.33
9762.59
9794.86
9750.98
9755.31
9794.22
9802.46
9751.19
9751.5
9779.23
9781.97
9734.24
9720.36
9729.15
9731.65
9750.34
9776.89
9735.26
9723.31
9731.94
9729.43
9735.52
9754.38
9746.86
9779.46
9740.7
9725.88
9726.58
9716.36
9721.63
9718.82
9725.46
9725.13
9729.58
9735.66
9767.37
9787.35
9738.9
9731.25
9730.87
9727.45
9731.41
9767.13
9721.7
9712.63
9710.66
9713.09
9715.18
9720.87
9728.11
9762.93
9723.19
9714.43
9711.96
9712.1
9716.44
9728.98
9768.51
9791.14
9751.33
9782.2
9733.21
9728.79
9750.08
9785.23
9744.49
9762.64
9726.87
9721.92
9730.18
9759.99
9720.24
9711.12
9713.01
9718.17
9728.88
9763.63
9719.51
9711.72
9711.75
9721.68
9759.49
9794.06
9736.53
9766.9
9710.63
9708.76
9708.4
9711.96
9706.64
9711.68
9711.18
9715.48
9707.74
9715.1
9707.24
9714.38
9708.48
9717.47
9705.92
9717.88
9703.93
9718.42
9701.93
9719.35
9700.04
9719.6
9698.97
9719.99
9699.75
9724.47
9721.34
9712.12
9696.7
9719.11
9693.67
9715.93
9693.34
9717.03
9691.56
9715.92
9690.99
9717.18
9690.25
9717.58
9688.92
9716.86
9688.08
9717.17
9686.2
9715.6
9685.75
9717.14
9683.24
9714.34
9684.79
9720.18
9679.21
9709.35
9686.88
9728.6
9672.75
9692.23
9688.69
9737.45
9670.93
9690.86
9687.89
9739.35
9669.69
9690.28
9686.26
9740.66
9668.09
9688.7
9684.77
9741.84
9666.07
9686.26
9683.3
9742.48
9664.06
9683.88
9682.12
9744.91
9662.11
9681.42
9680.7
9747.48
9660.27
9679.78
9679.27
9750.55
9660.04
9687.35
9696.68
9754.52
9681.24
9669.08
9649.71
9665.83
9662.53
9738.98
9656.74
9704.58
9676.09
9757.6
9653.84
9681.92
9672.67
9777.29
9702.14
9681.22
9669.22
9742.93
9645.84
9656.62
9655.95
9726.15
9642.87
9654.93
9637.92
9653.46
9641.48
9698.87
9698.7
9652.82
9698.9
9798.27
9878.1
9684.91
9786.6
9787.77
9871.34
9672.88
9724.71
9724.96
9742.03
9693.85
9781.89
9791.63
9866.81
9679.84
9747.57
9751.24
9764.87
9656.91
9717.43
9737.37
9799.9
9669.27
9762.19
9761.53
9861.55
9672.35
9773.42
9712.58
9840.87
9686.99
9794.71
9673.39
9752.83
9713.48
9834.38
9682.81
9781.82
9729.05
9844.68
9673.66
9777.25
9680.56
9769.49
9736.93
9839.94
9654.06
9725.81
9669.7
9713.82
9650.98
9728.89
9689.4
9734.12
9650.43
9735.43
9699.47
9769.26
9638.71
9698.49
9675.79
9722.94
9661.25
9761.86
9717.42
9827.15
9650.9
9745.26
9693.72
9765.3
9643.39
9741.84
9700.32
9763.81
9641.03
9744.84
9700.05
9764.89
9642.48
9748.36
9693.64
9751.15
9637.02
9747.34
9686.86
9723.46
9624.09
9689.15
9660.59
9699.01
9637.04
9762.39
9681.83
9725.6
9627.75
9724.79
9668.3
9694
9643.56
9771.28
9658.79
9714.14
9650.13
9744.92
9631.56
9640.99
9640.81
9699.73
9626.5
9614.34
9613.09
9619.34
9637.72
9639.4
9611.94
9609.81
9621.62
9603.04
9597.37
9599.09
9604.58
9625.49
9634.55
9629.65
9762.74
9719.48
9850.65
9649.05
9771.62
9679.2
9735.87
9645.14
9799.38
9691.06
9691.99
9614.32
9673.83
9713.16
9891.04
9611.92
9628.21
9601.24
9612.57
9631.52
9624.88
9609.99
9625.02
9638.56
9725.09
9652.51
9732.68
9636.6
9795.62
9661.5
9668.84
9601.75
9624.55
9639.35
9685.39
9661.26
9804.83
9653.33
9649.93
9588.41
9590.62
9588.42
9590.48
9587.49
9601.77
9590.68
9606.93
9610.76
9602.93
9685.7
9707.17
9869.99
9583.91
9586.6
9610.64
9605.51
9591.2
9636.84
9691.7
9889.77
9586.64
9586.48
9608.49
9586.73
9619.88
9704.06
9597.35
9589.19
9575.64
9593.45
9692.81
9683.53
9817.5
9619.73
9673.39
9609.58
9628.88
9639.85
9826.59
9625.59
9621.21
9576.29
9591.82
9577.53
9582.14
9592.7
9631.35
9786.8
9600.52
9700.14
9654.83
9680.9
9603.71
9731.39
9643.91
9640.75
9572.59
9586.23
9604.87
9595.94
9599.59
9688.73
9582.87
9570.35
9566.51
9572.95
9593.38
9585.15
9583.73
9562.77
9576.86
9594.99
9661.81
9566.67
9616.51
9661.28
9804.25
9608.76
9601.17
9577.49
9648.85
9584.42
9723.54
9660.4
9773.66
9652.9
9815.1
9627.17
9615.37
9566.47
9629.31
9658.62
9880.01
9566.02
9578.1
9588.51
9562.3
9567.27
9572.86
9585.2
9575.84
9576.59
9557.04
9560.93
9576.47
9582.25
9584.7
9573.77
9572.18
9558.07
9569.76
9559
9568.4
9550.92
9562.4
9601.01
9608.55
9796.68
9643.05
9646.67
9564.45
9576.19
9589.11
9598.36
9559.33
9627.99
9585.78
9726.83
9543.86
9542.31
9541.62
9542.02
9541.15
9545.55
9539.96
9539.67
9545.05
9538.92
9538.14
9543.73
9537.28
9537.23
9544.22
9535.97
9535.99
9543.06
9534.58
9535.77
9548.11
9553.75
9568.4
9557.83
9639.6
9698.89
9866.99
9581.43
9594.04
9535.67
9543.34
9535.61
9566.58
9562.23
9587.84
9611.89
9555.2
9551.23
9556.08
9541.82
9532.25
9540.41
9571.76
9592.18
9542.33
9643.17
9701.66
9933.47
9597.21
9596.98
9535.73
9571.22
9645.5
9855.43
9596.95
9607.25
9582.98
9816.47
9529.39
9530.66
9559.58
9530.86
9525.4
9536.97
9570.72
9588.09
9561.95
9692.23
9525.18
9550.83
9563.26
9582.64
9609.43
9804.41
9523.3
9541.95
9563.02
9603.47
9610.28
9749.03
9540.22
9522.27
9521.55
9537.1
9543.64
9561
9521.57
9539.62
9543.17
9570.42
9535.79
9595.4
9576.36
9684.01
9515.28
9524.19
9539.31
9582.6
9667
9878.31
9597.52
9613.69
9594.19
9704.41
9541.12
9520.13
9522.52
9599.79
9608.93
9778.5
9547.14
9556.88
9552.06
9617.96
9576.05
9717.73
9534.28
9620.58
9600.82
9788.96
9525.12
9546.32
9555.18
9634.8
9580.36
9740.16
9570.2
9592.68
9557.72
9712.7
9542.23
9557.59
9570.15
9696.02
9538.9
9556.49
9570.84
9692.92
9542.37
9564.98
9589.44
9734.29
9532.5
9517.24
9521.02
9537.04
9543.6
9595.58
9545.76
9601.95
9545.52
9598.93
9570.57
9698.63
9529.31
9560.81
9593.26
9776.34
9512.7
9565.76
9531.63
9637.88
9547.92
9576.47
9535.3
9636.15
9509.63
9575.8
9533.42
9629.63
9512.31
9570.15
9527.44
9610.45
9506.5
9563.46
9521.63
9592.24
9503.95
9570.38
9521.9
9595.18
9500.95
9563.63
9515.01
9572.66
9503.96
9576.09
9555.69
9762.88
9503.95
9569.26
9517.31
9582.24
9499.27
9567.79
9518.72
9587.35
9493.56
9548.03
9520.6
9618.5
9541.74
9687.82
9529.15
9574.39
9564.19
9736.55
9496.29
9515.71
9492.03
9517.75
9515.7
9589.52
9522.9
9560.29
9566.92
9743.12
9544.26
9610.18
9596.57
9766.41
9519.91
9525.64
9492.74
9531.56
9529.9
9618.45
9497.85
9563.02
9582.24
9678.21
9533.51
9614.5
9534.8
9623.3
9531.55
9614.44
9515.34
9596.67
9525.47
9607.01
9510.43
9599.18
9522.05
9606.29
9515.36
9598.02
9527.64
9617.02
9514.02
9596.44
9525.6
9613.58
9512.94
9592.71
9525.15
9612.11
9516.33
9591.4
9523.92
9606.21
9522.81
9598.08
9532.31
9625.41
9535.02
9644.22
9525.08
9593.94
9506.79
9553.35
9509.33
9568.17
9514.33
9577.77
9515.33
9575.49
9517.2
9577.4
9517.93
9575.41
9517.66
9571.55
9512.91
9565.15
9512.27
9568.47
9518.18
9577.39
9524.69
9610.75
9528.25
9630.98
9527.58
9623.56
9532.15
9657.33
9521.22
9591.82
9503.47
9547.86
9504.79
9556.85
9510.04
9566.96
9509.45
9565.66
9511.5
9568
9512.43
9570.11
9514.87
9573.49
9519.36
9597.95
9543.44
9707.85
9564.3
9752.87
9532.68
9613.69
9534.16
9585.3
9481.81
9563.42
9515.66
9683.26
9513.1
9509.96
9496.11
9557.25
9505.87
9578.72
9533.34
9670.75
9541.23
9658.62
9488.27
9496.63
9516.46
9582.77
9507.86
9558.88
9521.45
9644.2
9514
9574.59
9489.92
9518.78
9510.49
9566.8
9491.49
9529.41
9504.69
9554.39
9489.19
9535.53
9512.68
9602.14
9511.05
9585.46
9509.71
9591.26
9514.91
9624.1
9508.15
9561.78
9490.39
9524.91
9477.67
9509.3
9517.9
9601.73
9489.28
9520.03
9486.29
9533.43
9470.89
9507.79
9507.93
9589.98
9477.14
9525.37
9469.48
9510.79
9488.18
9574.84
9498.15
9572.54
9499.7
9575.15
9513.25
9647.18
9526.01
9663.29
9483.39
9506.89
9463.44
9469.69
9481.96
9613.2
9501.3
9559.27
9478.54
9530.56
9481.62
9530.19
9476.61
9516.58
9484.47
9555.38
9502.42
9635.09
9517.27
9655.42
9479.15
9525.76
9504.58
9642.29
9531.19
9677.05
9472.76
9456.83
9440.51
9550.63
9459.93
9608.84
9523.92
9629.41
9446.93
9541.35
9525.13
9584.54
9461.64
9460.41
9436.21
9491.74
9489.36
9627.2
9483.35
9575.47
9485.32
9532.32
9468.31
9538.74
9475.11
9557.71
9475.62
9545.06
9464.27
9566.53
9519.67
9685.94
9479.9
9526.82
9472.7
9526.28
9463.81
9541.07
9469.95
9555.9
9468
9551.12
9469.77
9551.34
9462.28
9556.43
9541.48
9585.95
9442.38
9506.84
9551.84
9552.04
9444.61
9518.36
9555.85
9554.37
9445.22
9487.63
9482.82
9603.33
9491.57
9612.35
9528.21
9438.58
9425.38
9484.98
9564.72
9612.07
9425.02
9421.63
9440.87
9465.95
9461.95
9534.35
9496.56
9645.91
9395.29
9397.5
9374.45
9369.44
9374.14
9378.75
9407.95
9427.4
9457.84
9485.34
9522.2
9471.71
9604.35
9392
9386.94
9353.31
9349.4
9345.17
9344.13
9353.73
9391.62
9442.14
9441.54
9439.4
9637.58
9496.98
9359.21
9348.49
9330.64
9332.41
9335.35
9350.19
9326.51
9326.7
9328.55
9345.19
9332.9
9366.49
9347.52
9385.57
9392.71
9528.21
9387.04
9505.48
9566
9580.14
9363.62
9350.69
9319.64
9338.78
9326.81
9362.41
9345.52
9386.95
9376.14
9503.06
9371.49
9462.4
9561.49
9650.66
9383.24
9381.71
9422.95
9429.1
9466.29
9692.91
9395.03
9342.86
9311.14
9309.72
9325.26
9389.1
9432.26
9506.88
9590.5
9733.04
9370
9405.35
9457.53
9581.19
9450.55
9337.46
9357.47
9524.72
9480.73
9731.08
9449.32
9334.41
9353.55
9500.86
9463.74
9695.95
9357.36
9342.18
9324.11
9379.89
9371.67
9409.69
9473.54
9686.21
9389.15
9344.18
9350.19
9360.84
9402.65
9550.09
9512.73
9538.56
9358.03
9363.09
9394.17
9419.67
9529.24
9738.9
9443.32
9353.43
9404.76
9544.38
9364.26
9402.76
9380.59
9554.68
9448.97
9517.03
9343.83
9400.43
9379.56
9619.34
9364.21
9369.79
9329.86
9387.77
9351.31
9473.39
9456.21
9762.29
9373.54
9369.63
9364.36
9521.6
9446.5
9699.29
9365.17
9361.58
9341.13
9414.97
9410.18
9692.66
9346.59
9328.49
9295.81
9296.79
9312.71
9362.39
9361.1
9422.59
9487.28
9739.94
9370.36
9384.88
9373.08
9593.9
9336.26
9337.38
9300.4
9316.76
9327.68
9364.33
9392.12
9577.45
9374.56
9457.75
9469.27
9766.71
9352.95
9344.3
9307.1
9355.12
9329.06
9407.86
9431.47
9680.47
9365.21
9346.36
9302.67
9345.7
9319.91
9400.55
9439.07
9700.91
9364.46
9348.45
9303.09
9348.11
9322.25
9439.26
9463.91
9763.17
9354.69
9336.06
9291.03
9318.15
9301.7
9346.33
9351.78
9443.27
9462.05
9752.61
9356.78
9333.22
9288.53
9316.37
9313.92
9357.91
9378.12
9568.44
9378.5
9465.47
9456.58
9740.52
9332.24
9320.96
9278.71
9274.45
9278.95
9306.73
9281.74
9308.23
9288.7
9329.44
9334
9527.27
9305.11
9362.18
9337.13
9441.62
9458.33
9776.29
9367.13
9313.22
9272.71
9272.39
9282.01
9310.41
9292.32
9349.79
9442.06
9651.41
9409.32
9278.55
9295.32
9343.77
9331.18
9459.68
9496.98
9822.04
9369.89
9296.68
9343.44
9331.32
9298.23
9393.75
9386.15
9656.21
9322.25
9311.89
9274.64
9298.07
9317.77
9391.61
9405.18
9702.14
9346.19
9312.97
9270.23
9281.97
9288.4
9322.4
9317.67
9425.25
9435.89
9775.56
9366.78
9291.51
9338.91
9332.44
9308.01
9452.77
9465.72
9760.77
9315.38
9308.07
9266.38
9262.44
9256.72
9255.34
9265.08
9254.94
9268.01
9255.03
9274.6
9258.27
9274.04
9301.89
9450.85
9507.4
9773.62
9363.01
9257.05
9255.57
9254.54
9262.41
9244.13
9245.89
9247.32
9257.64
9261.83
9254.75
9280.03
9378.99
9456.53
9763.64
9331.28
9299.93
9288.92
9411.03
9492.39
9861.09
9357.44
9283.65
9309.32
9363.14
9393.21
9711.73
9353.21
9282.22
9339.58
9349.18
9334.99
9621.09
9294.27
9292.3
9254.38
9253.97
9254.58
9270.94
9296.47
9413.8
9513.59
9770.6
9364.99
9259.12
9253.39
9239.86
9248.75
9261.53
9245.03
9270.95
9277.17
9383.07
9438.5
9808.77
9379.77
9254.37
9244.25
9263.09
9270.37
9337.75
9379.8
9732.79
9359.41
9256.68
9249.76
9249.67
9249.08
9252.77
9256.22
9263.29
9267.06
9343.16
9403.5
9801.1
9366.3
9269.71
9261.38
9230.01
9233.07
9249.16
9304.24
9298.76
9454.49
9538.05
9817.74
9328.02
9276.11
9240.11
9235.35
9239.58
9239.37
9254.98
9245.08
9282.46
9284.77
9481.17
9328.1
9540.6
9550.57
9786.29
9353.6
9256.27
9247.81
9228.96
9226.43
9229.17
9248.14
9319.02
9326
9497.93
9592.33
9995.25
9443.14
9319.1
9528.91
9249.84
9274.39
9246.18
9268.59
9286.77
9440.13
9516.84
9732.76
9316.06
9249.25
9228.29
9225.35
9223.29
9232.43
9222.47
9243.45
9307.35
9285.6
9395.61
9403.08
9854.57
9341.76
9250.82
9254.84
9277.5
9262.08
9333.73
9302.9
9517.6
9455.81
9757.4
9291.09
9300.28
9255.98
9289.22
9299.72
9529.18
9366.76
9284.95
9241.42
9245.96
9253.24
9282.32
9240.23
9266.75
9298.72
9506.06
9522.91
9953.87
9375.7
9255.51
9250.49
9284.41
9249.07
9280.52
9316.19
9662.86
9316.1
9321.73
9316.95
9561.08
9311.2
9298.43
9284.1
9463.2
9324.57
9421.33
9399.87
9702.7
9301.98
9262.46
9285.92
9349.25
9341.44
9620.19
9322.96
9235.26
9243.85
9247.63
9252.1
9251.6
9247
9245.38
9250.62
9309.21
9258.06
9350.29
9360.16
9720.64
9339.83
9224.39
9226.07
9230.23
9270.97
9428.7
9364.78
9812.91
9326.56
9238.2
9239.33
9240.08
9244.34
9281.01
9271.77
9361.78
9346.69
9667.32
9299.41
9247.09
9325.12
9385.72
9387.38
9779.9
9335.61
9237.23
9243.78
9275.34
9325.42
9363.14
9313.01
9542.8
9228.39
9245.12
9289.34
9423.47
9376.94
9814.23
9314.56
9241.49
9263.3
9312.85
9250.06
9291.57
9274.58
9365.98
9366.48
9627.47
9295.86
9216.34
9251.72
9280.4
9259.13
9344.51
9411.79
9921.8
9341.98
9218.84
9225.75
9235.01
9260.85
9336.47
9341.29
9461.28
9458.09
9671.91
9256.05
9307.76
9263.89
9346.82
9371.42
9748.07
9315.78
9241.54
9231.68
9231.61
9233.1
9254.64
9267.99
9346.15
9316.36
9550.01
9470.77
9778.39
9232.52
9224.44
9225.11
9223.21
9217.92
9249.33
9279.25
9467.96
9464.36
9945.57
9350.05
9217.42
9214.17
9214.04
9209.64
9222.7
9242.33
9291.15
9275.1
9450.38
9378.2
9831.62
9316.5
9228.1
9220.75
9212.49
9220.7
9224.7
9239.24
9298.9
9284.9
9490.18
9529.63
9962.94
9365.81
9230.03
9219.86
9220.95
9211.94
9231.92
9253.84
9419.04
9473.2
9734.01
9222.67
9228.02
9197.24
9201.32
9193.5
9202.74
9219.41
9261.76
9366.92
9657.07
9320.16
9219.52
9239.31
9309.75
9263.41
9477.77
9340.04
9312.74
9299.97
9685.62
9277.26
9222.25
9258.62
9342.71
9397.02
9695.13
9289.88
9216.33
9237.66
9298.79
9277.9
9459.57
9341.06
9689.51
9290.41
9210.1
9230.48
9274.22
9228.46
9278.08
9312.97
9403.24
9615.24
9790.66
9331.57
9287.93
9234.1
9256.46
9205.15
9197.77
9187.59
9184.35
9183.8
9191.94
9219.88
9246.78
9233.9
9330.19
9419.75
9979.65
9297.45
9200.53
9203.92
9218.86
9256.67
9229.47
9294.78
9272.77
9447.64
9295.81
9574.16
9247.9
9221.56
9201.25
9239.02
9238.11
9375.61
9325.77
9677.17
9267.49
9228.8
9243.93
9300.72
9307.36
9300.4
9287.62
9505.31
9526.13
10013.7
9365.65
9205.39
9188.86
9182.02
9178.66
9177.25
9187.02
9200.94
9236.95
9353.31
9497.54
9779.38
9319.11
9249.18
9213.99
9243.67
9203.46
9218.61
9178.24
9180.66
9183.67
9207.26
9232.79
9239.84
9411.44
9466.9
9701.56
9196.49
9198.55
9190.97
9208.67
9246.96
9228.01
9360.54
9412.72
9631.24
9235.14
9257.86
9343.06
9534.62
9231.93
9345.37
9356.47
9734.14
9283.6
9217.49
9209.78
9210.46
9241.98
9278.86
9265.58
9383.76
9319.26
9645.8
9244.19
9248.51
9246.73
9407.69
9289.42
9617.45
9325.62
9225.13
9252.51
9394.23
9392.39
9966.26
9276.35
9180.03
9189.54
9184.58
9204.77
9226.33
9226.19
9293.72
9337.61
9332.53
9424.9
9962.11
9244.54
9233.31
9192.91
9178.45
9176.54
9178.55
9180.28
9192.75
9208.81
9222.3
9307.33
9331.52
9394.09
9315.52
9751.02
9266.3
9181.52
9200.79
9211.37
9219.73
9272.24
9249.33
9408.25
9269.46
9557.15
9191.09
9228.51
9222.74
9210.14
9180.25
9186.46
9166.55
9188.93
9178.38
9225.3
9364.99
9415.01
9912.2
9413.66
9304.46
9228.32
9195.49
9226.11
9236.26
9424.74
9527.93
9791.32
9279.98
9181.24
9180.01
9193.17
9233.41
9220.53
9365.78
9375.53
9804.33
9216
9265.11
9228.06
9310.81
9368.9
9503.44
9202.94
9211.65
9226.66
9273.82
9247
9347.28
9367.79
9758.65
9324.34
9236.37
9270.95
9271.38
9236.12
9371.02
9440.64
9905.27
9394.2
9176.84
9172.42
9193.75
9221.01
9237.78
9355.72
9412.15
9730.32
9292.18
9166.12
9170.28
9191.31
9227.41
9301.14
9299.12
9375.45
9518.12
9807.29
9321.14
9226.37
9223.43
9201
9182.23
9179.95
9214.59
9227.46
9408.64
9466.48
9625.74
9231.74
9171.3
9152.52
9150.12
9153.55
9184.59
9207.8
9329.35
9527.51
9175.48
9237.98
9378.74
9567.23
9170.18
9182.15
9161.04
9195.22
9224.36
9332.83
9407.57
9834.51
9400.94
9190.7
9229.08
9280.72
9583.49
9229.22
9343.69
9323.43
9583
9252.54
9155.69
9159.14
9183.19
9196.98
9212.33
9353.64
9417.48
9941.54
9230.84
9167.64
9152.75
9162.04
9192.66
9216.87
9247.1
9546.35
9398.45
9319.84
9173.21
9190.12
9205.62
9332.05
9393.8
9909.24
9168.31
9150.02
9144.05
9141.6
9142.23
9157.72
9149.3
9178.28
9204.07
9258.64
9649.45
9299.05
9221.49
9179.81
9233.53
9368.34
9548.71
9200.96
9173.8
9171.7
9219.06
9226.24
9138.7
9140.48
9158.13
9188.33
9231.76
9490.5
9371.1
9250.94
9211.78
9212.23
9141.64
9153.4
9181.12
9220.14
9229.15
9421.56
9436.76
9764.76
9262.24
9185.46
9154.05
9153.75
9153.57
9172.32
9196.97
9236.2
9491.63
9544.27
9823.73
9288.19
9218.36
9219.66
9154.22
9141.61
9140.08
9136.99
9134.93
9151.34
9173.57
9171.56
9190.67
9299.48
9380.79
9971.03
9339.55
9147.52
9140.74
9147.73
9150.86
9168.42
9236.96
9223.5
9455.38
9587.04
9735.83
9246.29
9143.93
9141.57
9149.16
9161.24
9209.22
9213.46
9348.09
9543.46
9204.55
9133.47
9151.33
9194.14
9228
9506.49
9239.92
9216.51
9187.08
9255.44
9442.6
9668.15
9161.18
9176.31
9187.45
9238.41
9385.37
9611.89
9156.16
9161.72
9138.62
9159.45
9197.08
9251.25
9196.82
9238.12
9185.2
9209.66
9234.97
9515.96
9237.47
9224.74
9183.17
9187.79
9296.8
9551.19
9326.52
9300.64
9166.37
9175.2
9225.6
9492.03
9387.45
9340.98
9181.12
9215.77
9214.96
9413.02
9206.99
9359.51
9320.8
9777.56
9159.03
9156.53
9137.2
9147.79
9154.31
9188.17
9245.25
9187.3
9222.9
9230.57
9492.5
9447.36
9742.69
9200.05
9196.43
9216.76
9136.95
9138.87
9138.86
9164.48
9205.35
9259.93
9649.03
9285.22
9216.45
9163.16
9192.57
9195.52
9392.9
9253.49
9538.83
9363.99
9390.18
9193.71
9313.11
9376.46
9386.38
9168.87
9192.56
9191.01
9290.32
9196.73
9344.74
9287.32
9560.81
9214.85
9127.59
9126.51
9134.07
9172.81
9233.28
9419.22
9641.09
9181.88
9131.52
9118.81
9130.16
9162.74
9187.63
9349.48
9593.08
9185.98
9133.82
9135.96
9170.49
9216.22
9391.1
9682.84
9186.04
9122.57
9132.03
9174.82
9233.29
9555.28
9312.25
9290.68
9148.46
9149.79
9180.22
9295.36
9367.77
9546.34
9172.76
9140.03
9121.43
9150.35
9167.72
9284.64
9513.49
9269.68
9209.53
9151.94
9173.75
9229.03
9520.83
9338.73
9256.74
9135.79
9129.64
9143.67
9184.71
9257.36
9613.3
9350.13
9285.97
9152.47
9195.16
9206.61
9436.96
9477.56
9674.13
9148.39
9142.45
9171.75
9160.59
9309.38
9356.5
9423.28
9188.87
9264.38
9442.17
9608.5
9181.81
9144.54
9141.76
9138.14
9141.49
9151.32
9222.32
9177.24
9280.15
9379.01
9458.69
9126.22
9117.17
9112.33
9112.43
9130.18
9149.14
9209.19
9472.24
9356.4
9324.43
9154.36
9211.48
9371.43
9573.66
9160.54
9145.75
9127.94
9127.86
9112.64
9128.39
9148.72
9217.57
9508.03
9355.33
9325.44
9117.91
9116.66
9164.06
9248.39
9393.01
9573.92
9146.97
9137.34
9112.74
9130.18
9150.16
9227.64
9561.5
9361.12
9346.16
9218.79
9169.7
9226.78
9574.82
9346.33
9343.68
9274.56
9186.45
9199.47
9424.36
9408.16
9623.71
9144.03
9128.54
9107.02
9113.07
9125.2
9149.48
9210.37
9374.37
9662.21
9116.27
9109.63
9100.78
9129.31
9201.55
9464.99
9347.69
9310.55
9113.94
9106.88
9152.27
9220.31
9454.58
9810.33
9280.42
9133.61
9135.8
9165.94
9311.35
9394.65
9613.85
9153.44
9116.84
9097.86
9097.78
9108.51
9114.68
9142.53
9267.74
9422.09
9243.96
9185.1
9176.42
9309.38
9331.2
9803.59
9289.81
9176.92
9099.98
9095.86
9099.58
9115.38
9171.24
9298.87
9408.51
9635.24
9101.91
9116.62
9121.85
9166.66
9262.45
9375.24
9515.21
9095.3
9102.25
9118.24
9096.08
9124.08
9176.57
9338.68
9547.27
9195.22
9108.51
9138.98
9220.2
9592.73
9272.88
9253.87
9235.75
9129.35
9162.41
9370.49
9723.66
9138.13
9164.54
9339.27
9147.61
9186.5
9405.07
9674.18
9165.16
9106.31
9103.62
9117.45
9159.04
9232.27
9348.54
9515.09
9122.57
9138.2
9227.61
9491.06
9344.62
9329.67
9245.75
9167.64
9172.26
9356.6
9334.2
9599.87
9128.67
9134.89
9146.73
9185.43
9450.37
9296.17
9202.22
9146.42
9176.27
9322.73
9543.69
9120.43
9107.49
9094.75
9093.26
9114.53
9156.06
9279.59
9362.89
9498.95
9090.62
9090.98
9081.19
9088.08
9103.9
9176.82
9358.7
9352.79
9619.68
9111.18
9120.95
9212.61
9158.68
9215.97
9559.03
9231.67
9091.37
9083.5
9086.39
9106.88
9134.28
9265.93
9209.34
9119.78
9138.59
9197.63
9570.25
9288.47
9301.62
9203.17
9127.35
9196.61
9565.72
9321
9348.94
9238.84
9155.8
9220.72
9596.7
9310.66
9315.98
9108.15
9147.76
9279.18
9407.81
9095.41
9092.63
9132.24
9170.67
9363.47
9596.56
9155.94
9107.2
9084.42
9096.83
9116.78
9179.04
9232.69
9375.73
9572.01
9105.22
9135.18
9187.79
9389.93
9731.92
9163.1
9124.83
9147.05
9154.19
9379.09
9517.86
9859.64
9199.98
9090.84
9084.7
9098.38
9104.52
9117.41
9174.65
9374.29
9402.75
9624.51
9119.66
9134.06
9246.47
9268.56
9281.24
9169.71
9458.68
9232.24
9158.37
9139.38
9218.37
9212.59
9283.51
9323.5
9286.01
9135.38
9247.98
9146.76
9264.31
9247.13
9204.39
9089.9
9083.59
9088.26
9100.22
9114.78
9123.96
9241.58
9376.09
9357.57
9481.36
9086.47
9075.71
9070.88
9073.04
9102.35
9116.6
9198.95
9313.88
9386.01
9636.86
9145.74
9104.84
9085.03
9116.36
9128.84
9259.54
9603.16
9281.42
9299.44
9176.2
9165.28
9358.65
9630.81
9097.12
9084.15
9078.18
9076.47
9078.17
9087.14
9066.53
9073.21
9087.15
9088.68
9081.12
9072.84
9081.56
9076.56
9095.06
9134.84
9258.24
9729.27
9264.99
9216.85
9129
9146.73
9190.87
9576.16
9233.7
9132.93
9153.87
9186.99
9553.39
9141.3
9092.36
9071.74
9087.7
9109
9172.72
9374.33
9302.92
9202.2
9101.67
9097.09
9126.43
9238.6
9316.1
9490.69
9116.36
9115.69
9141.97
9363.07
9238.85
9233.57
9116.52
9159.57
9204.5
9505.54
9295.91
9229.45
9126.45
9148.14
9158.24
9392.35
9120.03
9112.21
9120.12
9221.1
9148.73
9214.42
9244.41
9309.23
9200.84
9538.32
9150.29
9100.71
9120.85
9133.37
9142.82
9366.09
9336.5
9411.25
9088.02
9078.37
9079.03
9100.5
9189.32
9146.73
9288.67
9564.99
9108.99
9086.15
9071.77
9068.72
9060.44
9065
9060.81
9070.97
9079.69
9091
9166.91
9139.88
9221.27
9667.49
9236.03
9190.51
9123.69
9148.17
9459.92
9218.37
9120.99
9126.34
9315.6
9140.26
9212.25
9406.56
9714.49
9098.78
9087.59
9162.76
9317.79
9491.55
9127.24
9104.65
9145.63
9230.44
9178.25
9303.41
9363.65
9546.33
9081.63
9073.79
9081.56
9079.38
9085.8
9108.75
9244.87
9292.68
9137.22
9411.94
9197.68
9137.87
9161.86
9377
9153.08
9143.45
9267.58
9384.27
9090.58
9080.92
9078.12
9078.88
9101.76
9125.65
9218.77
9577.4
9280.69
9281.8
9209.43
9121.99
9112.84
9251.03
9173.77
9390.93
9247.33
9180.92
9097.38
9110.52
9110.39
9270.32
9323.08
9437.63
9098.43
9077.87
9078.53
9114.48
9254.2
9294.64
9177.73
9545.24
9201.72
9109.63
9096.57
9155.52
9155.07
9396
9210.47
9120.08
9097.34
9159.44
9158.8
9384.18
9160.22
9159.91
9302.09
9428.4
9093.31
9083.42
9076.61
9069.62
9099.42
9118.98
9235.05
9540.87
9305.82
9281.74
9089.6
9076.02
9078.64
9101.26
9202.98
9347.45
9407.23
9760.56
9100.59
9068.72
9070.69
9061.38
9073.68
9091.11
9077.88
9089.95
9144.46
9326.5
9647.01
9066.22
9054.96
9050.18
9054.73
9067.2
9093.95
9151.76
9233.24
9329.66
9538.91
9080.76
9077.33
9068.97
9074.15
9070.45
9110.85
9176.18
9428.96
9849.22
9213.3
9127.99
9142.27
9194.23
9481.17
9291.03
9207.42
9089.95
9082.05
9082.94
9133.15
9243.92
9550.72
9283.05
9242.1
9124.28
9094.27
9088.86
9167.77
9197.03
9532.02
9140.82
9132.04
9233.96
9384.56
9085
9069.81
9070.49
9067.04
9068.84
9079.32
9106.71
9156.3
9206.12
9602.92
9195.3
9072.3
9062.26
9076.92
9070.24
9075.76
9110.71
9248.65
9351.7
9063.84
9075.72
9135.5
9171.24
9326.15
9649.1
9067.97
9048.89
9044.38
9049.02
9056.93
9078.44
9081.59
9123.99
9196.33
9346.73
9711.45
9092.09
9066.94
9077.58
9134.7
9138.17
9247.84
9696.2
9164.24
9064.13
9064.1
9058.35
9061.45
9059.07
9062.7
9064.97
9089.61
9113.71
9207.63
9621.59
9246.84
9189.68
9113.16
9133.78
9362.38
9083.33
9071.36
9076.88
9089.45
9149.75
9255.73
9255.99
9423.23
9078.85
9066.45
9073.96
9071.44
9077.77
9106.41
9220.13
9532.33
9246.82
9121.96
9097.96
9176.07
9110.47
9333.16
9350.87
9707.52
9091.09
9066.6
9056.97
9054.37
9047.52
9038.19
9039.72
9035.5
9048.37
9077.27
9146.36
9210.78
9307.37
9614.98
9063.69
9056.78
9063.98
9100.35
9082.26
9094.42
9177.27
9210.75
9606.47
9243.22
9204.86
9141.8
9147.18
9187.76
9102.48
9170.55
9107.52
9213.16
9099.47
9164.31
9104.68
9274.55
9219.13
9640.26
9191.9
9062.63
9046.74
9048.54
9045.3
9044.04
9037.1
9039.21
9031.69
9028.02
9032.58
9039.21
9060.93
9125.21
9262
9261.45
9110.63
9397.12
9149.52
9209.81
9246.7
9630.67
9226.5
9128.79
9045.29
9040.73
9057.61
9068.84
9094.92
9146.2
9358.18
9197.96
9118.68
9096.24
9167.91
9110.64
9257.79
9169.01
9541.07
9139
9052.56
9043.34
9050.56
9062.09
9107.43
9257.98
9237.91
9110.31
9283.61
9213.18
9645.87
9180.16
9055.77
9043.82
9034.43
9033.13
9034.37
9033.57
9037.19
9073.47
9102.72
9234.07
9339.88
9079.81
9095.18
9233.07
9224.67
9083.48
9157.8
9136.21
9419.58
9252.97
9162.01
9043.22
9037.08
9034.15
9030.2
9037.34
9043.84
9071.04
9174.64
9321.28
9348.48
9739.6
9095.32
9044.58
9048.92
9054.22
9097.1
9191.6
9231.74
9136.2
9321.69
9431.75
9823.89
9107.94
9045.48
9034.79
9031.06
9031.53
9033.82
9042.93
9067.33
9187.59
9251.51
9308.73
9564.59
9037.34
9040.97
9034.33
9041.19
9060.59
9100.43
9247.94
9360.9
9718.95
9077.42
9030.38
9025.71
9026.42
9029.13
9049.68
9106.52
9213.66
9363.88
9736.68
9097.08
9038.68
9032.14
9030.93
9027.3
9035.53
9057.96
9114.74
9124.62
9152.81
9431.98
9254.64
9157.36
9040.31
9055.27
9104.21
9168.77
9207.98
9295
9109.09
9284.12
9184.84
9599.76
9088.22
9036.73
9026.5
9036.15
9051.18
9044.63
9064.12
9116.27
9251.57
9469.98
9029.63
9014.82
9015.39
9020.57
9044.94
9069.69
9122.56
9133.15
9264.45
9778.85
9191.62
9118.88
9030.64
9019.15
9031.45
9048.2
9043.76
9057.89
9058.91
9067.05
9074.07
9102.15
9264.13
9346.75
9666.71
9069.51
9193.41
9127.65
9065.53
9110.64
9090.7
9270.22
9279.36
9526.92
9049.38
9033.6
9036.14
9049.04
9043.67
9051.08
9084.13
9193.51
9162.18
9080.95
9293.34
9368.59
9771.43
9112.76
9043.17
9034.86
9035.47
9018.06
9028.73
9027.33
9053.94
9086.82
9164.99
9400.56
9186.86
9639.85
9201.06
9112.46
9126.56
9242.61
9343.03
9057.16
9048.74
9055.41
9048.22
9055.42
9053.62
9049.99
9075.51
9091.66
9259.55
9316.57
9568.98
9059.78
9043.58
9051.69
9062.49
9116.22
9180.49
9642.63
9076.64
9086.06
9043.88
9097.66
9201.68
9136.78
9054.09
9088.99
9055.5
9121.74
9140.33
9401.65
9181.12
9058.58
9036.65
9016.13
9016.94
9010.03
9017.13
9024.59
9063.65
9173.84
9279.21
9605.15
9025.31
9021.97
9031.8
9053.38
9137.86
9257.07
9419.35
9030.79
9016.55
9012.04
9007.08
9011.75
9032.59
9086.24
9148.94
9337.41
9765.06
9097.65
9061.64
9094.94
9071.16
9209.04
9204.99
9800.75
9083.27
9110.01
9155.94
9089.64
9059.01
9059.32
9038.18
9033.49
9031.63
9044.18
9027.85
9031.07
9045.92
9108.61
9199.18
9314.13
9111.2
9298.96
9366.51
9791.52
9127.19
9030.34
9028.27
9026.47
9010.12
9008.45
9004.21
9013.1
9036.18
9096.8
9211.58
9448.03
9870.54
9187.8
9048.7
9045.91
9022.95
9035.2
9069.89
9094.44
9162.37
9082.56
9029.09
9047.93
9085.14
9171.75
9255.18
9565.8
9058.95
9020.84
9016.32
9006.49
9005.57
8998.95
9001.39
9013.04
9055.15
9142.25
9278.03
9538.25
9018.97
9020.32
9028.06
9023.68
9044.57
9050.63
9138.94
9240.76
9377.86
9021.26
9008.74
9011.13
9014.62
9047.39
9159.94
9239.7
9472.33
9006.47
9001.92
8998.67
8996.8
9008.87
9028.72
9085.33
9074.93
9113.91
9193.36
9177.97
9694.8
9207.19
9139.79
9054.01
9023.1
9034.97
9030.37
9056.51
9051.65
9070.57
9058.47
9137.77
9208.63
9772.92
9202.07
9126.22
9023.77
9011
9008.3
9004.4
9013.21
9039.23
9061.37
9052.2
9130.26
9296.67
9741.89
9076.85
9009.97
9003.91
8999.13
8997.41
9001.91
9024.05
9047.48
9115.19
9257.03
9573.45
9017.84
9010.63
9025.77
9031.24
9072.2
9080.6
9202.53
9407.56
9855.87
9205.12
9057.93
9140.76
9071.99
9307
9179.08
9670.78
9216.46
9104
9057.24
9019.27
9013.86
9003.29
9003.03
9007.1
9022.44
9029.14
9053.53
9036.98
9085.86
9151.64
9421.13
9239.69
9851.05
9235.4
9177.87
9058.3
9008.88
8999.83
8997.14
8992.23
8992.48
9004.21
9033.13
9041.21
9095.74
9208.03
9260.19
9096.28
9450.41
9136.86
9034.11
9016.72
9000.98
9005.12
9004.01
9027.77
9064.29
9060.95
9140.14
9285.02
9678.2
9020.28
9007.97
8997.63
8993.18
8987.58
8988.4
9000
9066
9182.99
9237.46
9827.02
9135.66
9053.19
8995.55
8995.85
9014.24
9035.76
9028.93
9096.67
9194.72
9150.57
9072.27
9380.29
9102.27
9154.25
9146.56
9399.23
9409.27
9850.53
9225.99
9071.31
9237.76
9084.44
9349.68
9040.6
9010.43
9000.31
8997.11
8992.46
8988.57
8985.66
8987.22
9005.4
9095.53
9207.62
9114.89
9066.93
9253.65
9270.45
9653.68
9024.91
9008.79
8995.61
8991.24
8987.17
8989.29
9003.28
9025.25
9062.22
9092.63
9096.36
9114.8
9565.29
9157.59
9031.5
9010.11
9027.56
9035.97
9019.89
9052.23
9071.95
9066.56
9039.91
9119.42
9141.19
9586.75
9140.78
9029.94
9014.9
9027.42
9049.84
9023.71
9056.67
9058.96
9058.96
9019.74
9047.87
9011.1
9025.05
9021.47
9095.91
9075.45
9386.73
9352.37
9826.32
9073.35
9014.48
9021.25
9072.41
9166.21
9030.49
9114.28
9061.41
9344.32
9298.59
9696.05
9037.32
9008.18
8997.32
8992.99
8989.01
8984.52
8987.48
9001.47
9031.29
9074.69
9169.6
9106.98
9015.06
9056.05
9019.75
9061.71
9081.23
9220.61
9048.03
9119.79
9064.84
9353.25
9176.04
9288.09
9111.52
9480.22
9040.49
9047.05
9105.56
9167.49
9131.93
9199.95
9123.74
9487.66
9047.27
9083.38
9099.92
9220.38
9207.08
9488.37
9047.53
9050.08
9064.23
9080.23
9031.61
9031.11
9003.82
8994.05
8987.96
8984.23
8979.49
8979.93
8999.16
9026.15
9024.43
9110.08
9181.56
9105.66
9046.55
9261.24
9286.81
9813.15
9100.56
9010.19
8991.94
8988.32
8983.65
8981.67
8977.38
8973.96
8974.13
8984.74
9017
9059.16
9056.8
9170.5
9361.78
9881.4
9161.99
9026.63
9062.66
9003.82
9014.35
8996.62
9012.31
9012.33
9115.98
9141.94
9710.94
9153.91
9054.39
9061.99
9048.5
9119.02
9156.09
9505
9137.04
9029.59
9010.05
9002.05
9008.59
9034.77
8991.62
8985.04
8981.52
8986.41
9008.59
9044.5
9012.69
9049.9
9109.7
9242.27
9160.28
9691.14
9076.05
9002.14
8987.23
8983.74
8979.64
8990.84
9021.75
9045.77
9010.53
9039.61
8996.61
9012.34
9006.04
9040.82
9040.99
9025.73
8994
8998.57
9009.98
9084.4
9061.19
9402.45
9178.41
9032.37
8986.39
8976.56
8971.28
8966.77
8963.86
8965.04
8984.33
9029.22
9025.2
9109.43
9181.35
9118.61
9119.58
9667.29
9070.18
8994.97
8989.27
8989.68
9004.91
9034.17
8987.93
8988.71
9013.61
9072.4
9061.62
9298.65
9333.8
9873.48
9190.23
9021.87
9107.26
9027.4
9201.45
9082.51
9437.48
9115.34
9033.27
8988.74
8980.19
8974.79
8970.26
8966.13
8965.33
8988.89
9038.9
9020.08
9075.9
9153.44
9094.04
9024.03
9173.65
9203.72
9848.91
9145.14
9004.13
8988.16
8985.91
8979
8975.84
8969.57
8968.28
8976.03
9015.15
9008.84
9050.7
9066.19
9161.22
9160.07
9547.74
9145.67
9035.43
8986.24
8979.01
8988.54
9007.19
8992.65
9011.69
8983.17
8987.08
9006.07
9076.58
9101.02
9435.53
9109.34
8998.9
9000.19
9029.85
8982.81
8975.49
8968.73
8969.84
8992.64
9020.89
8987.96
9007.66
9088.28
9302.98
9237.74
9996.62
9187.14
9027.16
8980.76
8973.71
8969.03
8966.81
8972.78
9009.39
9052.95
9011.68
9058.18
9035.27
9054.4
8997.77
9037.49
8978.24
8969.6
8968.6
8975.11
8991.84
9035.86
8998.08
9039.1
9157.18
9191.36
9038.81
9384.37
9052.41
9117.49
9137.05
9563.04
9130.05
9008.79
8985.35
8980.03
8980.32
8983.4
8999.75
9041.74
8990.63
9003.46
9017.57
9192.95
9117.13
9619.35
9111.27
9022.29
9008.65
9051.38
9178.71
9098.36
9602.92
9141.31
9000.61
8983.45
8994
9026
8973.63
8967.88
8963.58
8965.91
8997.22
9046.77
8997.84
9043.61
8997.52
9022.81
9120.91
9330.35
9323.7
9967.65
9303.94
9054.76
9042.14
8983.55
8974.22
8970.32
8966.48
8961.82
8957.07
8956.55
8963.94
9012.97
9072.89
9129
9109.48
9173.26
9854.23
9158.27
9006.6
8970.94
8965.19
8958.95
8955.37
8953.61
8958.83
8992.55
9013.77
9068.92
9121.72
9169
9424.44
10015.2
9293.32
8998.95
8985.93
8981.51
8971.33
8964.59
8959.3
8958.11
8971.76
9029.46
9140.56
9408.23
9948.55
9217.97
9061.99
9453.9
9077.23
9008.78
8986.15
8977.42
8968.46
8964.11
8956.38
8952.23
8950.57
8954.61
8994.99
9049.52
9065.01
9244.99
9123.04
9645.7
9108.97
8996.21
8975.34
9006.46
9051.36
9018.33
9128.78
9196.12
9869.83
9136.35
8996.67
9007.85
8976.75
8968.54
8962.58
8956.1
8952.03
8953.95
8975.72
9023.31
9091.88
9294.72
9299.86
9885.23
9156.85
9000.02
9045.63
8987.47
8980.54
8996.48
8964.93
8975.11
9005
8991.26
9051.67
9034.76
9070.21
8999.18
9108.98
9050.18
9439.53
9096.07
9022.21
8969.63
8966.4
8960.34
8961.75
8980.5
9019.21
8995
8989.89
9020.52
9198.83
9122.15
9698.8
9137.46
9001.06
8963.27
8959.8
8958.1
8958.82
8987.73
8976.29
9022.45
8974.82
9012.4
8970.74
9001.4
8992.05
9029.64
9004.62
8977.38
9020.71
9193.92
9304.32
9947.83
9224.91
9020.3
9112.93
9061.03
9333.24
9019.37
8998.79
8973.19
8970.74
8967.11
8970.22
8957.29
8960.03
8976.51
8999.18
9110.25
9593.83
9091.52
9244.49
9260.68
9869.59
9144.23
8994.79
8979.27
8976.05
8965.57
8961.06
8954.05
8951.53
8953.06
8976.89
8996.59
9035.56
8979.44
9017.59
8963.67
8982.2
9014.86
9139.01
9166.34
9856.61
9181.91
9100.21
9007.56
8955.76
8951.31
8948.83
8946.96
8955.25
9006.05
9054.55
9061.14
9276.26
9237.24
10174.8
9220.92
9018.74
9040.01
8977.5
8967
8959.47
8954.07
8949.89
8947.3
8946.7
8959.06
8997.87
8948.11
8987.95
9015.83
9038.33
8992.01
9030.94
8969.66
8984.64
9010.78
9207.84
9119.69
9720.46
9143.16
9063.02
8962.87
8957.55
8953.99
8956.55
8986.16
8997.22
9039.05
9017.26
9040.23
8969.35
8996.94
8976.54
9031.91
9002.26
8974.89
8982.69
9071.09
9056.09
9352.66
9400.64
9895.78
9225.06
9032.13
9291.91
9063.04
9397.23
9138.77
8977.62
8963
8958.29
8957.39
8955.15
8957.07
8948.36
8949.71
8963.66
9009.11
8985.28
8993.76
9023.74
9264.1
9167.19
9835.69
9097.41
8973.03
8965.02
8961.35
8953.33
8950.95
8951.34
8961.66
8984.81
9017.64
8980.55
9001.28
8995.02
9059.44
8999.5
9092.74
9036.54
9402.58
9011.61
9018.61
9120.88
9250.5
9169.99
9808.88
9165.43
9008.57
8977.46
8959.82
8954.65
8950.28
8947.94
8947.57
8957.03
8979.58
9008.63
8955.4
8981.47
9002.26
9100.18
9152.76
9899.27
9204.35
9046.84
9044.41
9059.58
9029.47
8965.44
8966.42
8950.77
8952.99
8962.69
8993.96
8986.58
9061
9023.08
9105.31
9128.98
9717.55
9088.89
9000.37
8981.94
8980.23
9048.93
8968.57
8974.52
8964.18
8996.03
8948.39
8947.68
8958.55
8953.56
8964.13
9009.36
8972.79
9010.29
8964.99
8971.44
8998.83
9163.74
9211.25
9975.84
9307.31
9019.61
9070.87
8977.52
8969.61
8951.78
8953.43
8946.98
8948.56
8949.43
8947.34
8967.44
8999.1
9089.16
9115.91
9759.29
9126.92
8986.92
8952.63
8960.79
8995.19
8972.64
9014.43
8952.04
8950.68
8942.43
8957.51
9004.42
9109.97
9240.99
10045.5
9327.47
9158.25
9104.24
9037.43
9406.43
9095.28
9005.37
8961.38
8954.19
8947.78
8949.45
8942.97
8950.89
8975.25
9021.83
8954.2
8982.25
9008.6
9195.85
9147.55
9869.06
9080.05
9011.12
8971.31
8992.56
9000.86
9138.9
9245.98
9009.61
9224.25
9206.22
9609.4
9008.92
8979.13
8961.8
8951.83
8945.75
8949.65
8941.21
8940.42
8941.51
8966.25
9024.65
9154.65
9260.56
10047.1
9310.08
9028.97
9140.35
9043.65
9445.17
9090.05
8978.45
8956.7
8949.18
8947.79
8947.91
8950.25
8948.47
8971.94
8960.68
9000.44
8970.89
8958.31
9019.29
9096.49
9130.07
9819.53
9151.87
8998.69
9019.14
9085.27
9238.2
9209.65
9835.92
9120.06
8995.2
8971.54
8955.84
8946.3
8942.01
8943.89
8953.55
8967.49
8998.29
8935.81
8937.04
8953.71
9009.91
8947.02
8990.77
8971.75
9003.88
8945.21
8968.83
8994.07
9085.23
9138.84
9861.06
9096.54
8967.12
8955
8943.26
8947
8970.92
9021.41
8940.26
8948.19
8989.41
9019.67
8962.34
8964.93
8982.36
9087.35
9154.75
9925.12
9081.03
8988.45
8953.69
8955.33
8941.48
8950.12
8944.35
8971.09
8950.59
8985.02
8954.91
8957.84
8961.27
9023.26
8970.48
8954.11
8999.8
9054.6
9017.24
9119.66
9214.36
9700.25
9003.9
8953.41
8942.27
8941.79
8957.92
8948.32
8949.1
9000.24
8961.02
9015.18
8945.35
8947.43
8960.52
8995.86
8973.28
9005.14
8957.6
8980.88
9006.05
9155.31
9198.29
9982.76
9290.89
9036.05
9129.87
9041.17
9463.71
9069.07
8988.65
8961.85
8941.66
8945.44
8946.59
8948.31
8969.2
8945.17
8978.06
8985.66
8995.68
8972.68
8948.76
8991.06
9070.4
9023.82
9341.28
8996.54
8999.92
9085.41
9092.39
9062.69
9420.23
8989.17
8969.44
8986.78
9034.66
8993.81
9014.53
9032.66
9206.42
9131.67
9326.86
9000.88
8965
8951.57
8963.06
8955.63
8969.02
8987.03
9158.29
9047.94
9568.92
9006.27
8965.61
8941.15
8946.59
8938.01
8940.46
8932.43
8942.02
8938.82
8976.21
8929.53
8967.42
8988.91
9004.4
8961.12
8969.08
8982.78
9016.46
8963.23
8948.77
8980.84
9090.77
9159.43
9947.34
9205.82
9003.04
9206.43
9180.68
9680.18
9016.04
8972.2
8950.98
8950.44
8936.57
8933.9
8934.81
8943.78
8932.68
8945.2
8940.59
8938.36
8979.72
8990.38
9188.83
9135.51
9836.44
9084.45
8961.02
8945.95
8950.6
8934.57
8943.12
8938
8936.17
8975.58
8973.46
9057.31
9005.91
9252.96
9132.39
9788.36
9034.05
8964.54
8939.19
8941.78
8942.9
8937.55
8936.28
8928.77
8943.66
8930.21
8954.97
8946.76
8981.93
8928.08
8951.25
8989.58
9123.9
9243.08
10071.7
9305.84
8946.91
8937.52
8933.18
8933.3
8944.05
8931.09
8945.57
8940.88
8930.06
8950.46
9002.66
9108.46
9169.43
9948.72
9143.25
9030.73
8974.14
8983.8
8996.19
8973.91
8954.48
8942.89
8998.79
8941.65
8944.79
8935.14
8960.88
8940.07
8972.87
8926.56
8932.48
8952.25
8944.06
8988.9
9087.68
9130.01
9875.7
9110.21
8972.91
8936.94
8941.84
8961.16
8935.38
8944.84
8944.93
9004.71
8934.51
8940
8950.71
8998.82
8952.71
8938.67
8986.88
9073.58
9072.03
9579.43
9048.53
8961.49
8935.35
8958.94
9027.3
9259.64
9406.92
9989.18
9287.91
8996.71
9092.59
8981.94
9128.98
9096.15
9364.04
9014.05
8965.96
8939.44
8943.19
8931.91
8942.96
8924.46
8922.98
8925.36
8942.71
8989.56
9072.24
9031.26
9400.1
9040.41
8968.82
8985.05
9100.7
9113.11
9364.1
8991.62
8958.92
8941.98
8953.65
8941.11
8987.56
8960.48
9049.48
8950.55
9000.37
8943.08
8955.56
8946.6
8998.34
8924.32
8926.68
8945.46
8927.88
8961.49
9020.81
8999.33
9107.42
8983.82
9041.99
9058.41
9494.74
9063.13
8952.74
8943.37
8969.34
8926.55
8940.94
8926.8
8939.6
8946.75
8992.83
8935.56
8925.33
8951.51
8957.89
8960.34
9011.57
8946.25
8934.92
8968.22
9080.24
9121.77
9896.96
9124.15
8941.1
8942.9
8924.83
8941.05
8915.12
8925.66
8974.4
8960.45
9014.83
8932.04
8952.13
8997.57
9067.13
9220.91
10189.3
9300.04
9103.46
9064.84
8964.79
9120.22
9044.09
9498.17
9064.88
8940.67
8930.11
8945.03
8941.58
8923.44
8947.54
8978.26
9040.59
9029.68
9154.69
9106.52
9774.46
9096.46
8978.73
8933.19
8924.41
8921.7
8938.11
8926.1
8994.91
9054.96
8989.77
9185.97
9187.08
10046.5
9297.22
9057.37
9070.92
9022.7
9093.4
9008.86
9148.69
9073.82
9500.85
8997.18
8941.92
8929.51
8921.1
8919.02
8931.38
8933.77
8945.08
9009.41
8921.73
8944.88
8965.13
9063.64
9173.19
9820.62
9034.74
8940.89
8956.56
8933.62
8965.92
9015.24
8954.08
8941.24
8983.25
9016.26
8964.02
8982.77
9077.3
9193.38
9187.77
10065.9
9270.85
8957.53
8998.13
8944.51
8943.9
8935.74
8936.71
8919.84
8934.5
8920.78
8939.67
8918.13
8928.78
8943.41
9020.89
8924.39
8932.56
8935.93
8991.91
8933.11
8980.24
8958.36
9078.55
9035.31
9530.17
9045.78
8952.2
8938.55
8952.41
8939.75
8992.69
9103.32
9174.56
9700.38
9000
8946.7
8947.5
8937.87
8931.52
8958.75
8962.43
9105.91
9084.42
9772.38
9105.6
8952.48
8944.75
8943.84
8938.97
8921.56
8936.48
8934.86
8972.98
8930.76
8923.44
8938.49
8936.78
8959.79
9052.79
9003.27
9262.99
9094.48
9465.01
8981
8952.97
8923.38
8926.58
8950.91
8955.86
8976.9
9138.17
9196.95
10022.9
9322.42
8959.92
8950.53
8938.12
8949.67
8954.64
9025.9
8938.42
8923.59
8932.41
8919.9
8950.95
8976.62
8951.94
8949.43
8996.42
9153.77
9136.63
9902.46
9178.86
8994.07
9063.19
8945.85
8961.26
8941.63
9047.34
8935.87
8937.06
8926.39
8923.46
8929.55
8919.43
8943.15
8947.58
8969.43
9097.28
9114.8
9918.75
9098.37
8943.35
8938.34
8951.62
8932.39
8964.57
8990.7
8955.08
9003.48
9025.88
9316.83
9208.59
9701.51
8995.06
8936.03
8936.16
8936.99
8931.51
8950.88
8985.95
8944.76
8932.4
8944.17
9037.18
8939.33
8955.05
8982.03
9198.84
9161.85
10042.5
9127.35
8941.54
8956.59
8923.14
8938.57
8917.97
8929.88
8927.59
8962.43
8929.02
8928.7
8917.14
8931.11
8922.17
8968.53
8983.15
9252.84
9104.02
9824.97
9039.95
8936.28
8932.85
8941.29
8917.04
8913.47
8915.85
8938.61
8943.12
9026.08
8936.81
8948.74
8956.98
9087.76
9027.71
9419.15
9023.22
8934.02
8926.04
8948.33
8916.56
8922.86
8922.74
8942.84
8929.98
8967.65
9020.08
8981.08
8994.28
9021.98
9364.09
9083.94
9154.31
9100.23
9708.48
9070.91
8940.4
8947.55
8941.65
8923.01
8947.35
8922.7
8944.43
8923.9
8991.52
8927.59
8938.16
8930.91
8969.32
8983.18
9158.07
9159.79
10051.1
9217.04
8931.19
8931.9
8943.08
8909.13
8912.11
8932.94
8910.39
8917.49
8936.39
8961.55
8990.85
9352.05
8987.2
8943.11
8922.74
8962
8986.26
9282.34
9028.05
9378.5
9061.49
8940.86
8924.5
8941.68
8908.12
8915.28
8933.86
8912.02
8959.17
9030.74
8946.06
8939.72
8952.92
9090.74
9030.97
9475.83
9007.65
8919.49
8923.47
8926.55
8926.27
8950.59
8988.29
9165.76
9247.64
10200.9
9384.18
8957.36
8920.35
8920.04
8925.55
8919.01
8939.3
8974.84
9051.31
9059.29
9348
8989.95
8932.44
8966.23
8962.12
8988.04
9139.29
9159.25
9851.52
9049.12
8930.05
8920.52
8918.37
8927.55
8916.44
8943.77
8966.08
9083.48
9043.56
9467.51
9033.32
8942.53
8921.03
8932.06
8907.15
8912.51
8913.66
8931.82
8938.6
9003.36
9159.88
9244.17
10224
9383.03
8933.63
8939.02
8921.65
8929.23
8917.48
8951.6
8961.4
9093.85
9004.41
9273.59
9033.28
9006.57
8975.07
8922.35
8948.38
8932.07
8968.4
9030.85
8994.22
9019.02
8940.16
8910.03
8931.34
8931.1
8980.79
9106.03
9056.08
9547.48
9027.49
8931.92
8921
8940.5
8925.97
8964.87
9034.94
8957.54
9010.02
8936.98
8922.15
8918.19
8939.66
8969.31
9190.8
9218.82
10127.9
9373.94
8944.95
8939.62
8923.36
8932.22
8915.4
8926.27
8923.68
8922.98
8940.69
8959.79
8923.58
8917.83
8933.3
8924.44
8939.6
9082.11
9016.19
9328.87
9100.49
9372.69
9001.86
8951.29
8917.18
8933.09
8921.28
8935.39
8923.09
8944.54
8960.38
9089.4
9018.26
9357.47
9032.14
8943.79
8941.14
8993.92
8972.57
9070.36
8993.31
9102.29
9019.21
9388.06
9007.15
8923.27
8944.71
8927.1
8944.09
8955.66
8957.07
8989.41
8944.35
8964.91
8924.12
8900.52
8900.81
8914.74
8905.94
8920.18
8940.91
9098.32
9045.41
9566.94
8994.89
8911.97
8915.58
8934.8
8940.24
8989.61
9085.54
9077.68
9662.31
9000.8
8918.93
8923.56
8927.13
8913.27
8942.84
9035.88
8943.29
8934.87
8975.97
9121.93
9133.57
9984.43
9188.74
8928.55
8961.08
8917.71
8926.29
8909.83
8919.6
8912.23
8912.93
8917.05
8901.94
8934.84
8959.31
8952.6
8969.85
9000.31
9332.66
8974.26
8936.43
8924.25
8909.1
8926.37
8912.56
8943.44
9043.41
8995.06
9104.63
9085.47
9715.05
9025.68
8935.46
8916.8
8932.08
8911.08
8931.7
8927.65
8967.96
9108.73
9106.15
9885.09
9074.14
8920.51
8917.67
8923.38
8920.57
8915.61
8946.61
8977.35
8944.78
8943.09
8978.41
9162.23
9219.07
10151.4
9367.1
8924.25
8914.25
8904.84
8909.05
8921.34
8931.16
8936.06
8975.64
9065.18
8998.62
9146.33
9120.89
9838.26
9055.51
8933.83
8931.55
8943.17
8918.5
8932.84
8925.37
8957.65
9022.53
8939.69
8942.9
8967.91
9111.68
9099.32
9500.93
9001.58
8909.62
8910.66
8929.24
8918.13
8961.68
9019.66
8945.68
8930.4
8950.5
9033.28
8950.21
9085.91
9040.28
9427.38
8994.45
8936.48
8906.11
8903.95
8905.46
8909.6
8935.87
8933.54
8955.52
9000.64
8944.19
8933.72
8949.17
8983.99
8944.11
8959.04
8990.38
9212.52
9426.31
9994.19
9275.23
8914.64
8928.34
8916.93
8914.76
8927.08
8947.48
8936.28
8970.94
8934.76
8920.85
8920.14
8916.49
8921.23
8968.04
8913.39
8892.24
8903.44
8916.28
8908.13
8957.84
8995.82
9191.1
9241.72
10163
9413.76
8930.06
8915.78
8922.09
8926.8
8927.98
8920.06
8934.85
8958.74
8975.91
9217.59
9160.59
10032.2
9281.08
8942.12
9022.85
8949.48
8910.02
8918.29
8901.3
8920.06
8912.53
8950.86
9008.17
8949.19
8930.69
8956.05
9043.64
8987.71
9133.19
9100.01
9769.33
9031.24
8931.2
8909.84
8897.22
8896.1
8903.1
8899.81
8924.61
8938.96
8984.57
9089.35
9049.75
9469.85
9000.09
8918.96
8902.34
8919.49
8921.45
8973.17
9006.05
8951.79
8978.81
8948.39
8905.46
8919.78
8958.1
8959.56
8941.09
8916.23
8922.9
8962.04
8998.74
8947.44
8896.12
8892.85
8902.63
8931.22
8927.77
8971.44
9071.21
9043.16
9404.76
9004.72
8921.93
8906.29
8914.96
8911.96
8966.82
8892.24
8890.11
8899.94
8902.15
8966.73
9084.55
9117.98
9791.08
9058.68
8907.45
8906.8
8912.31
8949.48
8922.14
8906.04
8949.97
8983.43
9019.17
8959.9
9027.24
8971.37
8915.33
8949.03
8905.55
8900.02
8920.94
8913.86
9001.09
8906.11
8935.47
8959.1
8973.68
8898.19
8905
8938.9
8911.92
8913.35
8960.22
8893.38
8891.54
8916.84
8900.93
8956.53
9104.16
9292.75
10176.9
9485.88
8940.59
8917.09
8916.38
8936.3
8914.53
8971.3
8957.5
8896.72
8902.91
8932.19
8929.24
8889.93
8924.13
8884.32
8915.65
8902.82
8963.78
8957.87
8941.48
8887.25
8917.66
9004.22
9079.49
9159.82
10147.7
9380.67
8927.85
8909.66
8923.48
8914.2
8937.89
8901.63
8903.84
8934
8888.23
8892.32
8922.3
8948.13
8994.3
9073.22
9069.59
9596.33
8952.3
8916.94
8901.12
8926.59
8899.59
8922.95
9004.67
8957.81
8910.44
8937.22
9004.28
8966.21
8904.94
8931.44
8994.89
8955.28
8909.07
8907.28
8939.71
8900.67
8910.46
8960.75
8946.67
8883.93
8882.12
8901.87
8939.22
8989.88
9034.4
8986.91
9365
9000.15
8920.05
8934.61
8997.12
8953
8906.66
8900
8914.81
8925.39
9044.15
8982.14
8966.19
8897.62
8896.42
8933.78
8905.81
8908.13
8962.92
8883.53
8886.48
8922.92
8947.56
8972.28
8948.1
8919.39
8934.21
8982.72
8991.28
8916.96
8990.83
8957.77
8897.58
8899.29
8915.28
8905.95
8994.3
8955.14
8888.34
8887.56
8894.77
8926.71
8907.96
8904.5
8948.34
8885.19
8894.15
8955.99
8942.34
8879.15
8891.28
8972.07
9031.32
9031.13
9778.1
9037.74
8910.86
8902.78
8934.43
8886.94
8884.26
8884.52
8898.77
8900.77
8977.05
9080.66
9105.5
10109.7
9312.08
8926.8
8921.06
8946.79
8912.8
8894
8922.03
8887.16
8892.33
8909.45
8921.3
8945.22
8905.5
8924.38
9117.9
9144.72
9903.22
9126.46
8922.31
8974.04
8959.68
8909.43
8886.23
8897.56
8911.6
8936.19
8892.78
8888.45
8909.81
8898.39
8962
8982.36
8889.01
8900.3
8942.18
8940.74
8880.65
8877.62
8882.72
8885.46
8940.1
8925.51
8882.86
8894.7
8891
8925.7
8956.61
8984.28
8886.25
8901.79
8930.13
8897.88
8901.71
8957.97
8880.28
8888.53
8943.49
8920.87
8882.78
8890.16
8937.11
8906.72
8912.5
9033.78
8984.17
9477.62
9008.3
8893.69
8895.67
8892.46
8927.24
8899.72
8902.75
8954.48
8881.58
8893.64
8961.13
8962
8884.92
8905.2
8989.01
9103.58
9224.02
10209.4
9438.07
8943.37
8900.08
8906.83
8934.73
8889.76
8883.4
8887.98
8881.24
8928.07
8913.45
8970.66
9052.24
9015.12
9757.74
9024.9
8897.94
8898.75
8921.34
8880.69
8888.28
8926.18
8983.37
9073.36
9046.57
9863.94
9071.14
8920.75
8943.81
8941.28
8891.92
8880.91
8892.79
8898.77
8934.65
8901.15
8889.85
8946.03
8959.38
8932
8879.79
8886.72
8918.17
8908.6
8887.3
8922.08
8981.93
9066.52
9044.83
9903.73
9077.08
8927.74
8935.16
8954.37
8948.19
8883.18
8908.51
8896.73
8965.08
8999.39
8925.82
9070.75
9057.42
9459.71
8919.66
8887.33
8908.35
8930.49
8926.52
8881.09
8879.06
8896.2
8926.35
8899.25
8899.67
8975.54
8940.48
8896.23
8892.04
8931.71
8920.57
8881.12
8884.76
8904.06
8893.91
8951.22
8877.89
8884.85
8932.85
8903.19
8887.94
8924.35
8887.87
8919.34
8881.5
8881.12
8892.6
8887.3
8956.34
8953.06
8926.96
8878.34
8885.61
8914.05
8899.36
8892.21
8927.52
8874.07
8900.18
8866.78
8885.55
8913.64
8897.9
8908.94
8872.94
8867.15
8878.69
8908.32
8988.74
8929.06
9179.98
9341
10149.2
9389.27
8943.46
8936.1
8942.92
8936.49
8922.89
8920.91
8917.5
8890.37
8913.11
8909.19
8886.77
8899.81
8932.02
8910.83
8891.91
8891.74
8950.64
8932.47
8906.88
8890.52
8910.25
8906.71
8885
8896.97
8960.92
8879.56
8890.12
8921.62
8901.53
8904.52
8933.76
8903.32
8879.93
8930.26
8914.76
8879.65
8903.53
8925.63
8884.22
8870.85
8869.73
8873
8903.09
8887.21
8909.96
9055.17
9089.77
9787.5
8954.83
8902.25
8923.4
8888.27
8884.8
8910.19
8885.48
8921.87
8967.38
9014.92
8979.35
9496.87
8997.06
8885.59
8884.13
8873
8908.14
8920.98
8989.44
9166.96
9097.44
10140.7
9275.35
8905.24
8897.87
8928.18
8881.67
8874.2
8887.82
8931.75
8925.23
8966.47
8933.32
8892.47
8882.71
8901.05
8902.89
8907.26
8873.22
8867.63
8885.78
8935.5
9001.46
9247.23
8899.97
8941.53
8880.26
8884.52
8931.95
8881.4
8875.79
8888.53
8951.42
8947.75
8872.52
8868.94
8896.76
8946.72
9007.02
9349.92
8921.45
8894.54
8911.08
8908
8886.77
8911.64
8931.1
8890.31
8891.05
8953.99
8895.98
8933.35
8899.83
8966.93
8992.91
9654.87
8944.31
8903.72
8899.33
8901.78
8880
8931.54
8947.39
8923.85
8882.44
8889.35
8922.57
8908.34
8866.17
8865.95
8868.37
8905.08
8892
8883.35
8908.96
8864.39
8865.48
8887.36
8959.66
8963.11
8999.65
8924.42
9225.73
9095.71
9542.71
8998.7
8887.83
8882.45
8869.47
8867.05
8882.05
8949.94
8952.71
9340.19
8967.37
9064.1
8977.4
9516.86
8935.61
8913.02
8921.84
8903.77
8936.18
8876.21
8916.82
8915.62
8872.4
8880.96
8916.91
8961.4
8946.34
8893.79
8901.28
8874.83
8885.31
8931.99
8918.81
8897.83
8907.34
8900.64
8872.42
8933.32
8967.33
9151.58
9227.15
10212.7
9496.64
8938
8911.91
8930.38
8937.77
8888.76
8895.65
8911.01
8865.48
8860.74
8858.57
8857.27
8858.7
8871.29
8890.32
8933.31
8933.44
8909.17
8879.86
8880.86
8931.73
8969.15
9075.5
8980.07
9559.86
9006.31
8892.2
8920.36
8909.98
8861.87
8858.46
8854.92
8853.83
8859.24
8890.6
8990.89
8926.37
8955.2
8925.87
8874.9
8878.52
8936.3
8947.98
8931.43
8879.16
8941.68
8917.56
9011.23
8887.2
8929.42
8892.42
8967.28
8949.26
8877.21
8895.65
8898.93
8877.85
8937.46
8913.24
8857.04
8864.56
8915.74
8903.98
8926.47
8880.21
8894.88
8911.08
8882.49
8929.57
8869.98
8917.92
8901.63
8991.72
8886.68
8923.97
8888.63
8977.38
8950.77
8908.94
8881.2
8901.14
8873.06
8905.62
8911.7
8860.04
8868.65
8911.72
8960.4
9189.67
9327.45
10376.9
9561.55
8953.79
8919.18
8909.86
8931.22
8903.89
8898.05
8868.74
8887.3
8903.39
8880.6
8892.15
8892.11
8862.78
8875.49
8900.14
8877.26
8930.54
8883.02
8959.58
8976.66
9524.71
8922.86
8900.13
8871.42
8867.16
8880.41
8906.98
9066.21
8965.11
9398.79
8928.54
8888.44
8858.09
8865.38
8907.62
8921.61
8973.37
8938.95
8883.74
8880.02
8896.71
8890.39
8860.3
8879.08
8906.88
8893.61
8897.22
8881.27
8858.07
8876.12
8911.57
8910.55
8894.82
8862.01
8876.74
8885.46
8894.88
8860.54
8881.08
8936.94
9045.82
9062.2
9876.6
8983.68
8978.78
8927.72
8918.61
8929.86
8865.48
8856.49
8851.78
8848.27
8847.14
8855.07
8896.68
8938.22
8975.06
8901.44
9058.26
8963.38
9178.6
9014.98
9506.37
8888.26
8890.05
8905.07
8904.7
8864.43
8858.68
8855.26
8853.67
8877.16
8892.54
8960.53
9214.82
9009.47
8896.58
8890.66
8861.42
8877.87
8874.94
8905.65
8872.79
8872.4
8904.59
9065.32
9122.98
10093.7
9316.5
8909.71
8899.86
8881.47
8854.44
8867.94
8885.29
8934.23
9003.87
8920.34
9034.71
9022.59
9640.63
8915.21
8881.54
8892.04
8909.8
8909.16
8893.96
8864.24
8884.74
8883.21
8915.01
8855.58
8869.88
8857.6
8891.53
9038.17
9032.61
9590.7
8893.21
8876.77
8900.76
8896.75
8862.06
8873.92
8877.43
8882.6
8861.92
8885.58
8928.62
9049.67
8999
9735.39
8931.67
8872.14
8863.87
8850.62
8846.78
8847.3
8858.03
8936.61
9037.83
8953.17
9517.72
8980.73
8893.4
8904.88
8866.11
8864.91
8867.44
8911.64
9011.87
8969.27
9303.95
8890.89
8878.5
8851.81
8859.27
8886.17
8905.97
8849.08
8846.24
8851.71
8865.5
8847.25
8856.51
8926.67
9137.41
9221.57
10260.6
9476.68
8990.76
8891.01
8924.14
8873.6
8881.78
8859.98
8884.91
8859.31
8879.47
8950.16
8870.39
8866.69
8891.63
8895.61
8862.77
8856.37
8894.17
8918.53
8879.22
8863.09
8874.95
8950.94
8887.98
8922.91
8897.94
8871.21
8851.62
8859.31
8881
8865.33
8868.62
8860.81
8866.59
8876.63
8878.42
8871.8
8896.69
9060.48
9036.71
9791.23
8952.29
8872.76
8867.01
8874.12
8866.33
8867.18
8908.01
8882.44
8952.89
9258.94
8887.91
8861.79
8844.56
8841.03
8840.2
8848.64
8850.51
8935.68
9141.13
9114.7
10202.1
9389.33
8957.05
8925.68
8907.54
8901.51
8884.29
8869.76
8852.35
8828.9
8809.38
8798.2
8795.02
8857.19
8853.12
8845.91
8808.83
8851.14
8964.62
8896.52
8819.73
8784.13
8846.04
9012.18
9140.06
10147.1
9199.22
8871.32
8900.92
8855.9
8861.15
8809.66
8867.85
8822.14
8770.48
8806.4
8773.82
8784.37
8972.44
8998.58
9729.08
9044.51
9004.32
8885.77
8812.31
8769.85
8756.26
8724.77
8708.93
8759.63
8890
8864.91
8751.8
8773.31
9018.34
8840.61
8792.43
8739.66
8869.16
8732.24
8800.52
8757.22
8725.43
8727.52
8854.49
8844.69
8782.9
8672.09
8708.24
8881.99
8867.92
9570.85
8811.34
8674.18
8745.64
8980.57
9170.7
8994.93
9676.31
8943.9
8951.66
8746.67
8679.39
8717.72
8858.17
8805.15
9153.75
9010.87
8807.5
8699.44
8695.37
8664.55
8706.9
8797.43
8742.42
8861.5
8893.04
9387.78
8769.79
9111.13
9053.15
9907.71
9184.12
9047.17
8836.99
8679.57
8697.87
8923.44
9118.64
9057.85
9804.8
9033.73
9013.83
8788.62
8672.37
8656.05
8695.84
9135.77
9376.09
9425.64
9453.1
8855.22
8923.48
8723.51
8712.62
8764.28
8658.4
8757.4
8698.23
8740.79
8854.64
9091.4
8739.79
9098.91
9489.84
10303.4
8810.24
8672.52
8706.03
8763.37
9025.5
8899.89
9662.09
8727.13
8662.05
8781.65
8750.46
9010.71
8897.77
9708.36
8786.02
8856.26
9592.25
8966.21
9338.72
8923.44
9801.28
9129.57
9060.68
8840.1
8813.54
8723.59
8815.39
8701.83
8679.56
8664.5
8779.29
8753.41
8978.54
8961.12
10050.5
9136.46
9008.96
8721.95
8685.04
8655.85
8714.79
8994.31
9155.12
9064.31
9738.75
9319.94
9341.54
8870.01
8723.85
8692.39
8670.17
8657.66
8652.06
8646.43
8726.41
8945.86
8848.82
9580.97
9041.03
8787.91
9206.23
8651.98
8633.63
8655.8
8727.72
8718.34
8950.91
8878.13
9531.57
8889.69
8726.62
9048.76
9128.8
9907.91
8774.69
8683.55
8658.38
8757.58
8687.93
8907.57
8712.81
8891.48
8673.38
8618.64
8634.72
8792.38
8681.28
8921.21
8659.98
8669.63
8924.9
8638.15
8631.27
8799.09
8636.34
8643.93
8853.76
8629.94
8597.87
8614.85
8761.73
9145.19
9849.67
9162.97
9914.9
9072.25
8934.21
8702.02
8639.99
8630.7
8642.56
8810.18
8654.09
8609.05
8677.17
8848.31
9185.08
9163.43
9700.47
8826.22
8714.29
9008.07
9260.83
10316.1
9400.29
9622.08
8755.39
8690.2
8654.21
8656.54
8749.54
8659.05
8753.88
8733.58
9198.35
8854.24
9663.7
8868.57
8948.54
8690.2
8627.32
8615.35
8597.14
8609.65
8625.75
8847.6
8637.2
8722.26
8925.02
9087.09
8773.73
9291.38
8771.97
8633.44
8718.29
8751.13
8784.29
8709.57
9311.95
8877.81
9955.92
9138.73
8962.07
8662.93
8622.64
8702.64
8828.04
8667.04
8767.42
8683.79
8910.46
8906.15
8835.16
8629.44
8842.55
8709.48
9170.46
8819.54
9223.09
8909.68
9618.87
8839.21
8957.68
9109.85
8689.39
8623.03
8640.91
8814.64
8701.77
9069.77
8830.15
9210.56
9137.37
9713.98
8954.67
8789.73
9285.96
8821.99
9003.29
8643.58
8687.76
8950.7
9218.87
9047.23
9783.42
9040.32
8687.25
8679.26
8723.71
8843.78
8689.85
8945.69
8664.65
8920.43
8935.09
9525.92
8991.94
9700.22
9121.47
9115.66
8733.65
8835.24
8842.88
8617.97
8618.04
8777.93
8618.54
8617.5
8773
8945.04
8658.19
8951.88
8751.42
9411.27
8947.83
9121.94
8830.54
9418.3
8670.76
8778.15
8613.92
8579.19
8575.72
8577.36
8702.44
8688.06
8911.81
9196.58
8857.81
9799.02
9368.89
9519.6
8932.02
9156.19
8778.83
8845.64
8723.16
9234.34
8800.34
9600.12
8653.8
8616.17
8687.37
8843.43
8755.76
9394.67
8953.1
8966.14
8711.71
9084.85
8704.67
8863.55
9078.39
8855.01
9666.32
8829.17
8695.23
8806.11
8853.28
8748.85
9410.3
9234.85
9544.43
9276.24
9658.96
8806.8
8612.08
8601.68
8734
8907.52
8961.23
9771.41
8711.19
8770.25
8612.88
8618.07
8813.35
8600.16
8653.91
8848.24
9183.25
8639.03
8637.5
8766.38
8986.15
8711.26
9227.19
8765.76
8611.68
8643.93
8871.78
8990.76
8698.22
9201.47
8764.64
8619.08
8858.24
8586.69
8556.6
8589.38
8884.27
8794.31
9608.41
8734.56
8779.26
8599.8
8573.84
8641.27
8805.13
8706.52
9319.61
9060.96
9956.13
9585.1
9107.63
8712.41
8719.69
8980.02
8920.9
8834.13
8977.35
8757.46
9207.13
8610.48
8734.02
8589.77
8743.49
8926.53
8617.51
8761.53
8927.4
8632.21
8736.11
8905.22
8844.49
9934.01
8824.75
8795.54
8722.97
8777.23
8706.87
9167.23
8934.45
9120.21
8646.22
8787.7
8815.18
8719.9
8750.64
8608.59
8650.08
8707.93
8765.76
8952.4
8711.31
8818.24
8863.81
9835.24
8814.98
8910.61
8695.03
9236.17
8624.81
8649.81
8679.18
8795.99
8844.36
8922.89
8840.99
10001.4
9371.71
9460.42
8875.75
9315.15
8929.02
8937.67
8657.39
8720.35
8622.08
8788.25
8816.5
8690.63
8750.92
8745.84
9390.17
8770.01
8641.96
8663.76
8754.28
8821.81
8886.16
8800.94
9908.31
8957.89
8889.48
8597.8
8591.56
8751.24
8974.64
8655.52
9009
8939.27
9343.17
9021.16
9730.99
8961.82
8601.93
8700.75
8737.74
8941.13
8782.81
8942.71
8635.87
8778.38
9056.74
9882.37
8887.83
9110.22
8658.8
8609.9
8730.41
8662.84
8845.28
8773.45
9210.83
8784.2
9692.49
8846.83
8814.17
9013.94
9273.6
9182.68
9523.09
8976.8
8912.4
8607.53
8627.05
8794.67
8782.42
8984.68
8758.75
9595.45
8903.08
8833.08
8629.2
8818.76
8847.65
9703.48
8657.66
8829.5
8641.14
8791.96
8575.4
8571.58
8877.61
8582.77
8585.29
8795.98
8546.18
8665.76
8855.46
8710.19
9381.08
8589.25
8565.67
8875.95
8724.81
9358.29
8686.7
8741.16
8609.95
8972.3
8607.71
8928.03
8764.62
9904.49
8941.14
8914.84
8639.89
8921.04
8914.63
8884.6
8808.55
8855.23
8731.07
9716.76
8682.95
8831.61
8607.02
8792.7
8862.19
8562.24
8710.45
8892.66
8777.53
9699.87
9053.28
8840.41
8586.4
8652.22
8535.58
8631.73
8553.18
8568.62
8646.48
8865.47
8714.14
9368.2
8719.65
8541.93
8814.17
8697.04
9729.59
8945.53
8730.94
8590.83
8652.81
8770.47
8944.85
8634.38
8839.92
8638.54
8980.3
8635.77
8517.34
8626.44
8825.86
8534.67
8506.77
8715.48
8858.26
8978.58
10341.3
9127.59
8853.97
8611.56
8688.27
8981.72
8815.31
9710.03
8726.48
8695.68
8550.09
8574.97
8848.41
9015.25
8553.56
8573.97
8868.73
8552.57
8577.76
8683.94
8568.37
8975.88
9170.23
10368.7
9180.71
8797.82
8753.61
8945.98
8907.28
9854.22
8628
8593.81
8728.46
8952.22
8939.73
9631.24
8573.27
8621.4
8650.85
8615.08
9088.59
8853.54
8913.14
8604.61
8668.37
8895.91
8720.28
9022.85
9057.02
10553.7
9410.06
8839.35
8644.41
8840.11
8663.09
8873.07
8842.81
8672.9
8639.76
8658.11
8583.27
8755.88
8560.18
8992.05
9080.45
10283.1
9229.38
9031.29
8592.33
8602.77
8745.91
8610.1
8928.32
8797.48
9862.52
8872.63
8855.53
8606.43
8658.13
8716.39
8653.35
8837.41
8656.05
9193.86
8861.5
8594.21
8986.83
8824.11
9727.6
8856.03
8847.88
8600.03
8621.28
8530.38
8554.47
8933.85
9224.99
8801.5
9652.41
9007.67
8688.44
8923.35
8563.22
8532.33
8788.69
8878.18
8762.41
9429.81
8883.5
9431.15
8573.07
8631.6
8541.29
8660.36
8823.7
8527.25
8491.35
8760.45
8885.83
8726.91
9611.48
8884.91
8692.24
8959.66
8780.97
9302.03
9203.95
10237.6
8993.31
8667.69
8546.83
8747.14
8827.04
8673.64
9192.29
8652.49
9261.29
8695.54
8887.55
8611.6
9067.75
8884.75
9795.33
9100.02
9472.92
8927.44
9723.06
8919.08
8653.75
8596.67
8548.4
8561.62
8626.57
8725.28
8740.92
9071.9
8713.68
9604.62
8613.67
8735.5
8705.13
8865.98
8661.23
8791.56
8664.75
9518.26
8843.83
8937.56
8554.95
8580.93
8659.17
8899.08
8591.05
8970.72
8885.05
10024
8953.2
8805.48
8571.56
8551.14
8857.35
8822.29
8826.78
9323.64
8683.77
9540
8729.01
8815.02
8586.93
8635.42
8737.07
8715.6
8956.09
8569.44
8695.67
8742.49
9235.93
8864.25
9943.04
8864.41
8830.32
8574.89
8636.83
8532.81
8637.02
8811.37
8513.66
8496.92
8743.14
8561.25
8873.54
8853.4
9955.43
8836.05
8814.74
8576.3
8629.37
8678.37
8593.57
8854.42
8805.74
9956.66
8725.48
8685.18
8741.69
8864.29
8678.03
9327.19
8568.8
8695.29
8846.61
8671.02
9281.11
8844.71
8812.47
8685.63
9026.87
8676.57
9172.46
8795.52
9174.09
8774.29
9383.1
8794.34
8849.32
8600.4
8667.97
8652.05
8525.17
8560.05
8619.93
8849.45
8805.5
8804.95
8809.11
9856.81
8930.33
8807.73
8567.08
8630.26
8580.79
8733.67
8887.84
9337.03
8794.64
8961.79
8685.91
8848.61
8725.13
8833.7
8715.32
9634.21
8908.38
8763.08
8778.1
8901.58
8662.02
8733.9
8728.76
9285.78
8886.38
9289.2
8814.79
9256.01
8904.9
9731.87
8767.26
8720.64
8687.38
8747
8587.54
8703.88
8553.2
8623.05
8826.78
8740.09
8805.33
8602.75
8665.72
8531.73
8580.11
8611.3
8803.13
8744.49
8654.07
8639.62
9225.76
9119.62
10011.5
9383.21
9040.6
8617.35
8742.48
8594.41
8730.6
8841.26
9628.91
8812.62
8694.55
8964.14
9038.11
8729.19
8889.57
8772.84
9665.95
8870.15
8876.39
8666.82
8778.04
8967.83
9165.28
8789.06
9606.63
8944.99
8642.97
8561.38
8509.93
8498.7
8575.82
8691.29
8826.12
9124.89
9109.31
10014.9
9189.44
9632.18
9118.41
9364.71
8684.3
8652.3
8763.09
8564.07
8603.07
8553.62
8673.1
8525.54
8650.75
8887.66
8691.62
8970.63
8729.35
9099.11
8825.9
9010.9
8845.65
9006.79
8756.81
8689.7
9013.1
9391.44
8601.24
8607.63
8575.97
8532.34
8533.21
8650.32
8606.45
9007.12
8577.97
8534.87
8668.96
8599.83
8962.94
8648.44
8577.28
8827.19
8666.47
8583.77
8933.67
8987.95
9733.77
9259.28
9064.97
8535.66
8660.77
8817.95
8632.04
8904.49
8672.62
8928.46
8788
9936.14
9099.59
9070.64
8584.3
8595.48
8528.92
8617.18
8768.69
8812.04
8770.07
9668.12
8742.33
8849.9
8682.75
9012.27
8731.18
9122.12
8750.51
9144.24
8686.06
8991.05
8807.98
8773.94
8550.48
8696.63
8613.55
8531.11
8717.84
8819.25
8765.36
8917.09
8915.79
9964.99
8981
8581.84
8527.7
8509.53
8629.98
8870.97
8853.78
9985.06
8964.68
8774.91
8618.95
8653.36
8735.78
8624.33
8700.82
9388.67
8658.38
8983.95
9574.36
9060.81
9448.64
8965.58
8607.73
8541.58
8658.48
8677.97
8686.12
8885.91
8813.52
9273.03
8638.97
8631.85
8650.89
9282.14
8731.95
8525.77
8548.57
8589.76
8502.2
8485.19
8481.68
8535.35
8701.1
8827.73
8881.46
8992.11
9552.23
9274.84
8903.38
8558.93
8704.4
9023.9
9727.83
9136.1
9322.72
8583.73
8510.3
8507.86
8534.62
8610.61
8872.41
9103.04
10374.7
8991.39
8712.49
9011.52
9539.13
9194.15
9291.98
8658.65
8818.35
8614.33
8813.12
8546.41
8583.24
8579.75
8705.43
8524.11
8698.06
8787.28
8869.53
9860.1
8996.95
8609.58
8551.9
8528.85
8592.07
8532.5
8700.18
8701.85
9214.84
10705.4
8727.49
8595.29
8515.15
8549.31
8494.9
8508.96
8576.72
8529.73
8609.93
8530.3
8639.77
8676.89
9287.99
8518.34
8488.22
8533.6
8652.12
8955.25
8703.74
9547.82
8593.01
8567.45
8474.01
8493.77
8654.47
8949.59
8750.37
9652.73
8593.95
8501.48
8509.72
8665.15
9006.92
8661.61
8925.71
8909.22
9002.86
8653.45
8880.77
8606.44
8749.07
8779.21
9910.04
8708.64
8908.06
8647.26
9265.81
8557.65
8614.39
8806.48
8586.11
8643.41
9178.88
10374.6
8611.98
8566.24
8555.98
8573.51
8610.87
9153.15
8560.71
8550.68
8500.13
8536.06
8485.08
8507.56
8783.74
8649.28
8749.01
9573.91
8808.27
8538.18
8599.34
8504.41
8544.35
8557.17
8670.2
8600.47
9189.23
8519.71
8514.76
8759.33
8640.01
8663.31
9392.96
8655.6
8947.33
9013.9
8717.16
9406.4
9589.39
8573.55
8871.4
8952.24
8621.69
8788.62
8546.65
8658.81
8535.54
8602.32
8985.21
8973.08
9785.16
8695.27
8626.41
8833.2
8653.99
8866.38
8962.48
9292.65
9144.85
9206.1
8813.74
8993.74
9453.26
9055.48
9292.1
8572.38
8552
8737.17
8889.11
8790.4
9459.92
8538.77
8553.22
8541.98
8599.7
8564.93
8758.52
8581.04
8824.57
8640.13
8938.39
8529.78
8606.21
8512.01
8763.38
8641.98
8734.9
9475.03
8691.49
8855.35
8730.72
9539.46
9892.96
8962.32
8911.6
8649.73
9194.34
8576.47
8579.18
8507.44
8512.86
8802.99
8637.45
8738.47
9616.43
9266.21
9194.53
8519.94
8512.17
8562.77
8489.04
8538.92
8787.87
8625.48
8698.4
9111.81
8747.6
8894.33
8746.11
9625.53
8709.14
8760.56
8967.75
9252.48
8751.97
9397.54
8554.41
8494.02
8486.95
8507.25
8822.86
8699.06
9191.34
10827.2
8614.33
8547.49
8695.13
8837.06
8639.65
9010.51
8574.74
8655.33
8667.83
8803.68
8889.45
10014.4
9303.35
9344.32
8726.25
9033.06
8804.13
8812.67
8619.42
8888.76
8534.51
8573.37
8518.52
8588
8866.11
9033.92
8803.52
9743.69
8649.34
8732.32
9024.89
9666.14
8689.66
9078.62
8628.48
8549.71
8478.26
8470.34
8468.36
8501.69
8540.68
8843.92
9532.84
8690.36
8739.05
8981.71
9366.59
9024.88
9441.12
9072.19
9429.11
8938.02
8642.44
8501.44
8547.84
8480.56
8469.92
8476.96
8659.44
8646.85
8644.89
9245.49
8850.77
8645.74
8551.37
8747.95
8564.34
8475.61
8464.9
8462.91
8472.99
8566.1
8524.39
8698.58
8812.8
8684.3
8781.8
9707.42
9015.48
8619.54
8549.45
8467.82
8469.25
8539.25
8483.54
8550.32
8546.28
8976.41
8646.44
8967.73
8673.49
8868.69
8602.69
8741.43
8510.7
8729.62
8709.77
9236.51
11021.8
8952.16
8698.61
8667.86
8752.68
8798.96
9489.42
8687.55
8708.77
8630.91
8756.99
8745.16
8771.35
8915.37
9616.13
8951.26
9333.16
8865.93
9561.91
8963.58
8704.28
8672.11
8779.75
8668.4
8788.93
8521.03
8630.04
8780.19
8578.67
8534.85
8483.94
8602.43
8742.28
8787.61
8636.9
8690.9
9430.55
8551.9
8500.23
8745.59
8801.01
8873.39
9666.36
9032.95
9341.75
8807.62
9321
8703.75
8721.11
8669.02
8803.09
8665.77
8909.05
8846.33
8815.68
8733.66
8721.8
8672.69
8618.6
8543.93
8516.46
8847.68
9507.36
9082.1
9558
9094.61
9297.06
8667.01
8722.63
8765.23
8928.37
8693.67
8877.12
8685.57
8752.39
8604.37
8624.1
8488.01
8535.88
8554.36
8748.13
8938.17
9423.4
8995.78
9467.14
8892.85
8660.17
8678.12
8707.84
8716.52
8775.87
8921.21
9883.16
8959.24
8605.01
8538.75
8488.2
8640.41
8626.42
8544.24
8711.64
8611.99
8579.41
8852
8604.79
8487.28
8603.88
8710.69
9000.47
9580.6
8745.61
8668.7
8677.13
8774.53
8666.26
8696.55
8757.01
9607.61
8856.65
8721.26
8791.97
9262.88
8880.74
8667.8
8483.8
8508.6
8632.85
8658.12
8751.2
9528.68
8700.51
8487.03
8471.66
8588.24
8805.5
9002.43
9978.6
9257.13
9349.11
8739.14
9194.59
8776.79
8685.82
8766.13
9117.71
8622.02
8653.83
8472.78
8469.16
8468.54
8513.79
8514.77
8878.6
9120.35
8482.08
8500.5
8524.12
8695.09
8801.79
8620.93
8679.77
8774.68
8578.72
8494.11
8570.34
8668.93
9328.27
8691.64
8523.32
8533.8
8478.33
8522.59
8494.06
8772.94
8694.64
8918.81
10189
9005.47
9176.15
8510.99
8467.75
8506.41
8520.34
8725.81
9111.08
8619.77
8686.81
8796.73
8677.09
8822.87
8654.43
8520.12
8508.72
8545.62
8715.53
8889.73
9280.22
8947.75
9826.93
8917.74
9026.48
8749.88
8896.22
8678.13
8654.67
8779.81
9535.52
8810.47
8566.77
8492.08
8506.61
8698.28
9009.39
8685.74
8728.75
8845.09
9661.91
8624.95
8513.38
8609.56
8688.05
8828.02
9576.26
8715.7
8687.46
8844.95
9620.71
8762.17
8721.46
8733.1
8867.99
8643.42
8833.74
8757.54
9064.38
8628.06
8602.42
8473.89
8469.97
8601.25
8658.51
8822.31
9699.16
9263.31
9246
8668.97
9236.71
8571.59
8532.89
8547.32
8570.26
8533.09
8671.01
8504.32
8697.28
8839.7
8571.25
8890.41
8720.54
8970.55
8546.35
8529.59
8468.75
8510.46
8463.56
8540.21
8860.17
8540.33
8774.9
8685.05
9021.66
9103.69
10154.2
9611.05
9136.68
8726.54
8930.19
8606.28
8601.67
8595.3
9028.15
8499.83
8460.89
8480.95
8739.49
8595.37
8507.86
8509.17
8676.5
9349.78
8852.12
9419.07
9096.06
10028.5
8993.14
8889.23
8520.92
8560.66
8588.73
8575.68
8480.54
8507.61
8546.17
8501.59
8699.44
8920.38
8637.77
8808.87
8462.56
8446.26
8473.46
8465.68
8672
8931.31
8572.7
8536.93
8514.11
8780.25
8572.86
8478.9
8518.16
8673.76
8813.33
8806.06
8590.67
8617.58
9349.56
8523.47
8488.43
8781.13
8625.98
8495.51
8490.36
8607.23
8789.28
9146.26
10833
8867.09
8530.4
8520.03
8490.56
8528.35
8540.25
8619.43
8473.35
8472.31
8487.61
8554.5
8831.16
9303.73
8981.27
9499.14
8575.55
8480.42
8519.25
8496.22
8583.25
8882.02
8499.31
8580.02
8516.41
8474.8
8710.5
9017.39
8538.58
8508.19
8539.75
8574.84
8542.08
8497.31
8555.44
8785.27
9286.4
10529.1
9477.13
9243.01
8532.6
8497.54
8510.91
8549.84
8533.6
8447.29
8447.97
8438.32
8438.86
8457.23
8612.2
9091.5
9006.92
10690.3
8785.55
8555.47
8460.01
8448.21
8491.45
8622.24
9118.95
9055.06
9702.6
8707.34
8592.41
8562.24
8492.96
8604.74
8874.03
8516.05
8539.95
8537.13
8564.36
8527.08
8577.73
8593.41
8545.95
8590.23
8717.54
9343.11
8690.07
9028.22
8923.05
10088.6
9020.84
9051.51
8571.59
8630.75
8548.45
8531.17
8478.09
8470.08
8558.97
8673.56
8587.34
8556.2
8536.01
8519.71
8499.07
8495.68
8520.54
8584.6
8612.38
8626.78
9149.89
8780.5
9860.52
8893.43
8845.89
8622.9
9117.57
8707.64
9095.95
8809.28
9416.08
8740.97
9119.38
8615.06
8940.92
8567.58
8589.49
8481.61
8504.61
8516.48
8539.06
8542.32
8601.14
9173.32
8527
8522.15
8534.07
8456.53
8498.2
8540.01
8572.79
8691.64
9222.97
8729.23
8653.06
8728.15
9454.81
8665.24
8682.69
8496.81
8481.78
8640.43
9152.52
8964.39
9657.41
8765.14
8551.49
8465.97
8508.64
8497.29
8471.05
8551.14
8513.36
8462.11
8487.12
8630.43
9092.55
8715.94
9328.86
8512.35
8477.35
8543.32
8670.67
8520.03
8496.18
8544.75
8459.23
8493.44
8557.53
8500.52
8492.09
8516.69
8533.9
8524.03
8545.82
8804.99
8677.72
9314.3
8553.51
8563.71
8500.28
8511.86
8523.53
8496.07
8498.51
8488.98
8554.23
8448.03
8458.23
8569.49
8716.86
8672.51
9055.42
9058.82
10631.8
9101.39
8700.72
8509.45
8490.87
8457.86
8464.87
8511.24
8519.04
8570.32
8604
8487.54
8495.1
8629.31
8958.93
8516.09
8746.77
8744.89
8616.79
8676.24
9493.22
9189.27
8709.73
9094.22
8741.28
9394.88
8545.39
8535.73
8497.88
8462.81
8522.97
8543.66
8502.75
8488.73
8520.04
8492.33
8450.85
8515.04
8500.05
8583.05
8737.38
8816.21
10001.7
9123.41
8821.73
8516.65
8465.75
8490.54
8501.99
8563.38
8548.33
8520.49
8428.95
8430.58
8497.75
8487.78
8656.19
9059.32
8687.07
9303.87
8967.7
9522.91
8865.7
8792.48
8826.39
8880.4
8636.16
8981.38
8823.05
10195.7
8871.65
8720.94
8558.45
8519.87
8472.78
8441.58
8442.46
8463.88
8541.1
8533.99
8474.66
8541.24
8621.14
9048.05
9119.3
10163.8
8755.13
8492.25
8509.52
8510.07
8538.76
8467.88
8576.64
8761.76
8517.46
8499.11
8513.51
8591.2
8494.47
8614.43
9175.55
8582.33
8600.58
8626.42
9070.37
9063.12
10182.2
8752.49
8528.05
8478.61
8472.59
8504.83
8480.75
8490.66
8549.39
8480.38
8503.05
8480.55
8565.38
8472.2
8480.52
8548.17
8551.23
8915.53
8447.58
8508.89
8518.32
8515.79
8636.06
8482.4
8461.32
8428.9
8466.93
8422.52
8462.73
8601.42
8593.31
8996.06
9090.21
9781.5
8750.02
8532.72
8522.19
8539.87
8531.79
8451.4
8513.04
8841.75
8446.5
8518.2
8518.93
8417.8
8413.08
8418.95
8453.2
8473.22
8559.84
8788.66
9090.51
10402.9
8974.47
8829.93
8472.27
8516.16
8434.88
8433.65
8420.64
8452.98
8445.51
8704.44
8887.54
8856.27
9254.45
9084.41
9378.65
8490.58
8442.98
8490.83
8479.57
8706.49
8880.92
9059.26
9221.26
8910.81
9626.11
8715.83
8499.91
8510.8
8471.16
8498.14
8458.46
8529.6
8492.4
8560.22
8939.38
8957.75
9428.28
8576.54
8555.05
8569.97
8588.42
8646.15
8769.47
8642.96
9062.47
8640.88
8813.43
8597.5
8724.23
8760.36
8932.95
8697.68
9424.09
8557.06
8499.75
8499.27
8524.45
8531.8
8600.57
8508.68
8512.97
8741.77
9733.76
8540.06
8486.73
8485.07
8507.68
8500.22
8510.69
8567.98
8594.04
8631.07
9000.76
9077.92
10021.9
9040.37
8706.25
8531.06
8519.72
8487.93
8516.58
8542.13
8652.56
8438.8
8427.54
8437.77
8501.51
8601.95
8647.4
8627.9
9144.45
9080.45
10253.2
8647.07
8499.63
8471.4
8441.1
8432.15
8427.39
8424.84
8451.19
8415.46
8425.62
8501.19
8526.21
8494.47
8739.05
9719.22
8947.31
9098.61
8870.75
9851.93
9016.8
8853.13
8647.72
9118.45
8627.66
8467.27
8468.64
8448.87
8463.93
8444.23
8489.84
8487.61
8598.86
8942.66
8521.85
8645.44
8503.81
8505.73
8529.17
8430.12
8447.14
8477.17
8560.23
8879.19
8727.96
8708.1
8783.78
10173.3
9099.98
8684
8598.74
8795.29
9032.46
10211.4
8876.81
8724.86
8504.64
8506.61
8457.93
8454.46
8520.56
8428.48
8421.19
8417.61
8412.58
8408.48
8415.8
8511.7
8461.44
8604.46
8951.85
8813.37
9962.69
9024.74
8743.41
8651.9
9160.93
8792.07
8670.42
8794.36
9609.29
8647.5
8506.09
8505.8
8498.33
8590.13
8586.58
8611.42
8992.67
9007.73
10193.9
8780.06
8495.81
8463.74
8438
8432.19
8445.02
8455.28
8464.3
8442.6
8510.54
8536.04
8726.89
9486.78
8751.11
8469.1
8458.06
8447.75
8489.2
8482.89
8537.45
8587.05
8659.63
9335.36
8549.17
8438.62
8450.37
8638.58
9012.42
8474.13
8462.45
8509.72
8527.99
8464.2
8515.53
8507.97
8502.53
8419.87
8483.5
8407.06
8425.77
8493.93
8438.29
8508.79
8510.68
8552.42
8574.92
9284.31
8607.17
8470.02
8504.99
8450.81
8503.13
8459.75
8574.79
8658.39
8770.66
8676.45
8973.87
10145.2
8835.43
8812.8
8463.35
8499.25
8463.85
8527.12
8461.1
8562.21
8765.19
9193.17
10501.7
9100.41
9037.35
8759.75
8859.06
8563.01
8884.9
8564.53
8462.69
8562.19
8520.12
8504.21
8496.14
8479.1
8422.39
8491.62
8508.02
8495.3
8502.76
8493.1
8470.39
8464.17
8489.11
8482.09
8489.04
8483.35
8484
8470.59
8474.45
8463.28
8484.89
8468.5
8470.55
8456.01
8445.71
8469.55
8427.52
8474.85
8430.72
8481.35
8481.93
8448.5
8508.79
8487.55
8477.79
8450.5
8496.76
8476.26
8443.16
8488.46
8491
8597.57
8472.66
8434.83
8468.77
8469.62
8468.99
8456.65
8453.9
8456.24
8448.46
8446.49
8448.21
8457.89
8444.32
8444.13
8452.94
8445.35
8453.56
8443.34
8448.35
8441.25
8451.25
8457.25
8430.26
8429.35
8430.02
8428.02
8440.74
8510.68
8469.29
8460.07
8448.96
8451.39
8483.62
8850.76
9569.63
8633.86
8496.25
8470.88
8501.46
8750.78
9517.95
9141.31
9374.43
8837.94
9445.52
8633.9
8586
8456.07
8458.55
8490.86
8493.85
8582.04
8459.47
8458.62
8484.52
8472.99
8429.91
8440.18
8480.98
8661.29
9551.14
8641.71
8485.03
8479.98
8461.99
8421.48
8445.01
8461.64
8455.95
8444.89
8441.24
8439.32
8437.45
8435.87
8434.1
8432.43
8431.12
8430.02
8437.33
8454.43
8536.57
8708.69
9280.54
10371.3
9492.71
8851.99
8904.76
9604.92
8701.51
9387.09
8914.43
8853.3
8675.07
8627.33
8453.16
8454.27
8563.6
8525.28
8478.77
8643.62
8448.02
8548.52
8506.23
8575.9
9006.07
8476.98
8508.99
8591.74
8468.36
8463.23
8442.01
8457.07
8477.58
8473.52
8696.83
9454.59
8600.6
8597.63
8562.25
8664.93
9286.51
8536.31
8501.49
8472.6
8489.28
8443.07
8437.87
8433.2
8430.01
8428.37
8427.12
8426.09
8425.37
8424.92
8425.11
8425.62
8435.26
8424.16
8427.39
8453.95
8483.71
8459.75
8434.04
8434.64
8486.64
8755.51
8656.5
9425.79
8609.47
8500.86
8443.85
8447.24
8441.02
8450.37
8435.76
8489.11
8467.41
8497.85
8458.25
8507.73
8783.96
8587.18
9088.04
8579.91
8479.99
8475.75
8451.66
8456.37
8488.64
8443.97
8436.27
8438.47
8433.96
8418.23
8435.61
8445.45
8521.49
8955.19
9403.31
8783.88
8538.25
8515.02
8520.19
8484.94
8460.54
8427.98
8416.44
8444.55
8438.14
8436.99
8432.94
8423.93
8424.5
8420.99
8419.69
8418.07
8415.92
8419.75
8417.24
8414.91
8421.18
8421.85
8416.61
8418.52
8419.2
8426.89
8431.55
8471.52
8681.98
8426.83
8427.63
8421.98
8422.78
8419.88
8412.22
8413.04
8419.17
8423.12
8419
8422.44
8422.12
8425.02
8426.37
8464.04
8711.41
9665.65
8772.31
8497.69
8435.91
8430.85
8426.44
8425.42
8423.29
8413.24
8421.01
8411.92
8415.64
8427.68
8469.09
8580.98
8893.68
8749.95
9561.96
8596.01
8493.55
8430.68
8425.52
8459.53
8463.13
8449.73
8494.66
8866.8
8473.54
8461.57
8429.53
8417.88
8439.86
8428.9
8446.43
8411.49
8452.74
8577.37
8412.94
8432.5
8404.13
8440.98
8399.43
8409.96
8429.54
8399.31
8438.86
8404.85
8498.37
8396.18
8449.59
8433.79
8446.63
8543.44
9165.59
8508.02
8417.87
8400.08
8398.87
8443.53
8459.89
8454.65
8405.27
8505.79
8861.07
8635.95
9495.14
8777.79
9019.62
9519.7
9651.43
9684.48
8653.28
8632.61
8999.45
8983.48
8792.3
8819.42
8989.51
9341
10387.8
9853.39
9461.88
8541.91
8556.57
8416.34
8418.64
8461.85
8451.51
8436.64
8431.94
8401.06
8406.14
8447.49
8446.28
8642.88
8508.01
8412.97
8461.61
8432.75
8407.26
8427.54
8403.52
8419.45
8385.84
8392.38
8402.99
8476.91
8403.59
8470.12
8865.87
8619.25
9405.8
8588.62
8464.66
8488.63
8399.67
8448.3
8459.19
8488.87
8893
8400.11
8399.65
8445.54
8435.04
8431.03
8419.61
8415.53
8392.03
8396.36
8402.39
8480.83
8416.96
8420.17
8396.7
8477.08
8387.54
8392.13
8414.79
8440.86
8477.23
8834.65
9502.99
8585.65
8465.83
8455.23
8411.23
8471.7
8558.82
8416.93
8387.26
8402.94
8411.88
8407.93
8428.25
8400.7
8439.07
8440.31
8446.93
8575.25
8392.37
8419.43
8386.68
8457.47
8395.55
8401.78
8481.99
8396.81
8554.68
9143.72
8938.92
8810.86
9258
8968.88
9252.25
10582.4
9357.11
8915.24
8938.52
9365.8
8862.53
8620.9
8483.38
8626.58
8728.69
8622.19
8539.55
8499.45
8454.95
8497.08
8922.91
8810.49
8808.11
9568.44
11119.9
8843.73
8628.5
8465.48
8525.86
8436.51
8507.84
8483.97
8686.27
8428.16
8450.71
8416.98
8456.68
8487.4
8442.93
8514.85
8586.82
9309.58
8589.51
8450.84
8496.62
8430.5
8497.75
8524.77
8406.96
8392.76
8418.85
8413.31
8409.58
8402.38
8398.4
8396.24
8396.53
8399.6
8397.97
8396.6
8395.99
8398.97
8402.34
8434.59
8403.05
8429.83
8406.86
8407.02
8472.64
8655.81
9541.79
8579.48
8456.05
8418.8
8409.28
8403.6
8394.7
8392.38
8389.14
8391.09
8396.32
8396.07
8410.07
8424.27
8544.67
9141.06
8597.97
8436.43
8403.93
8431.07
8391.69
8405.42
8397.91
8390.25
8387.36
8389.54
8398.31
8392.16
8405.08
8382.08
8382.9
8384.51
8395.99
8467.5
8940.61
8466.66
8399.74
8411.51
8382.99
8404.04
8433.96
8387.14
8400.17
8394.16
8407.94
8403.76
8447.6
8478.45
8996.51
8525.49
8408.8
8387.51
8400.98
8411.66
8383.98
8388.77
8387.95
8409.99
8395.29
8394.02
8408.79
8409.24
8439.64
8664.7
8458.35
8509.56
8454.86
8380
8380.69
8393.32
8382.28
8387.59
8409.83
8408.77
8437.51
8408.84
8549.13
9228.3
8692.38
8853.77
10173.4
9542.2
9162.42
9823.2
8442.25
8379.98
8436
8376.76
8379.68
8424.86
8417.48
8450.24
8598.21
9403.73
8819.68
8908.55
9780.31
8752.04
8427.32
8535.43
8440.21
8438.1
8378.93
8373.26
8381.18
8478.85
8375.46
8383.01
8441.32
8434.53
8792.92
8791.42
10070
9602.95
8963.9
9577.94
9194.89
9285.35
10475.9
9338.65
8856.8
8812.19
8601.12
8444.4
8393.76
8377.4
8374.75
8374.19
8430.59
8420.12
8477.26
8381.62
8391.6
8617.41
8707.27
9792.35
10059.4
8910.85
8792.84
8754.09
8671.02
8480.9
8435.76
8472.72
8419.98
8428.11
8577.99
8387.82
8371.77
8365.41
8397.03
8453.24
8386.72
8427.66
8367.43
8366.89
8394.2
8442.7
8386.23
8418.64
8399.04
8367.73
8402.79
8370.58
8461.44
8384.68
8517.99
8438.48
8472.3
8440.4
8504.89
8459.31
8397.43
8446.81
8650.81
9825.8
9805.92
8444.5
8470.93
8401.32
8478.68
8446.66
8420.53
8504.94
9064.58
8553.14
8395.6
8410.53
8447.37
8419.24
8376.87
8424.67
8372.9
8401.33
8424.39
8384.88
8401.79
8425.63
8378.22
8380.3
8397.18
8367.18
8400.77
8688.91
9616.42
8710.46
8474.67
8493.9
8395.26
8406.93
8474.69
8370.31
8458.65
8364.64
8451.77
8497.19
8692.62
10019.3
9194.56
9267.33
8932.79
9923.52
9546.69
9522.04
8630.94
9418
8716.19
8460.07
8503.59
8383.55
8448.03
8384.11
8472.79
8407.96
8441.48
8436.3
8364.61
8399.81
8383.57
8462.4
8370.37
8424.41
8791.62
9765.46
9094.76
8900.42
9703.87
8548.48
8502.27
8436.7
8437.21
8370.63
8418.82
8443.16
8430.93
8408.25
8490.8
8869.96
8410.2
8434.72
8369.21
8403.78
8407.47
8478.78
8415.22
8383.71
8400.27
8376.63
8420.01
8399.59
8529.82
8991.62
8433.69
8432.1
8429.48
8373.12
8448.28
8398.47
8367.05
8419.49
8512.83
8964.87
8486.26
8411.37
8372.72
8495.88
8469.8
8435.25
8394.81
8474.76
8717.05
8661.91
9462.45
8562.08
8429.45
8544.66
8988.88
9790.36
8503.47
8373.39
8378.24
8441.63
8393.77
8413.87
8461.78
8445.93
8388.3
8475.88
8490.22
8873.14
8512.32
8536.43
8461.84
8417.43
8453.35
8539.48
8413.63
8366.62
8450.97
8391.53
8504.09
8545.07
8493.79
8559.35
8404.67
8387.52
8519.38
8919.24
9962.21
8891.52
8484.45
8425.26
8368.22
8422.9
8410.39
8388.01
8386.18
8442.92
8427.39
8484.68
8490.08
8804.94
9489.19
8690.22
8985.15
10016.6
9157.02
8527.86
8389.62
8402.66
8403.42
8433.03
8368.01
8449.79
8374.71
8504.48
9173.38
8513.05
8403.31
8423.83
8422.08
8361.3
8390.07
8421.91
8362.34
8396.8
8444.89
8385.55
8426.06
8370.86
8419.24
8406.62
8596.93
9411.7
8568.09
8397.99
8391.64
8424.23
8369.66
8380.18
8420.03
8380.76
8421.27
8631.88
8408.56
8357.64
8355.51
8381.07
8390.29
8445.7
8357.37
8383.46
8453.89
8479.57
8508.93
8545.5
8399.08
8365.21
8401.52
8386.75
8379.36
8446.98
8915.37
8515.42
8581.46
8431.06
8368.84
8387.07
8399.76
8357.55
8365.21
8375.26
8426.03
8677.88
9568.61
8649.96
8406.19
8446.27
8431.54
8442.86
8581.12
9191.47
8516.74
8406.81
8406.84
8393.37
8436.38
8499.28
8658.24
8458.59
8391.3
8428.96
8366.21
8372.53
8419.75
8364.94
8384.51
8408.13
8416.47
8381.39
8476.84
8439.97
8427.46
8487.6
8855.58
8389.75
8408.73
8412.62
8356.1
8360.45
8359.17
8363.39
8416.95
8466.44
8648.39
8415.67
8357.24
8374.85
8419.37
8481.87
8613.73
8430.13
8360.2
8364.89
8386.33
8424.86
8391.02
8497.01
8609.63
8626.49
8998.2
9785.09
8584.82
8394.8
8383.92
8415.68
8353.33
8354.93
8378.86
8551.16
9312.78
8525.9
8392.2
8366.8
8403.75
8359.15
8394.32
8469.66
8479.47
8363.98
8350.42
8356
8364.8
8426.15
8375.59
8513.99
8567.95
8740.38
9262.31
9649.8
10046.1
8661.46
8580.38
8464.58
8480.55
8375.91
8378.98
8482.61
8713.93
9088.42
10100
9247.61
8885.8
9277.3
9105.87
9410.04
11033.8
8760.23
8432.45
8489.08
8357.46
8345.57
8398.99
8488.56
8437.72
8396.6
8408.79
8403.62
8663.99
8418.1
8362.37
8403.28
8362.36
8423.6
8353.86
8369.2
8418.08
8541.08
8363.44
8377.78
8401.1
8386.68
8344.42
8351.4
8394.16
8379.33
8463.11
8703.53
9621.21
8757.95
8648.64
8990.51
8760.46
9884.13
8787.89
8382.17
8444.99
8391.23
8453.12
8437.79
8545.61
8373.98
8396.67
8354.59
8382.23
8402.19
8369.97
8514.46
9280.25
8493.97
8397.85
8425.45
8353.34
8369.27
8450.25
8349.56
8348.67
8357.82
8405.59
8399.88
8560.77
8416.41
8358.57
8425.57
8345.55
8377.61
8377.83
8347.95
8377.14
8446.38
8556.72
8404.62
8344.22
8337.63
8339.69
8366.89
8384.22
8447.21
8566.17
9499.46
8569
8416.84
8397.96
8374.98
8426.23
8446.54
8515.98
8453.67
8357.02
8401.59
8345.16
8409.03
8434.19
8582.68
8403.67
8376.71
8416.24
8353.42
8378.44
8461.55
8868.55
9501.52
8705.81
8768.74
9796.02
8956.84
8525.27
8528.16
8402.4
8430.69
8432.13
8539.1
8380.32
8406.33
8396.15
8371.9
8394.37
8341.27
8348.26
8342
8389.52
8737.52
9660.87
8857.53
8589.44
9052.98
9346.15
8520.1
8608.62
8392.26
8440.37
8407.15
8428.65
8411.19
8341.92
8350.82
8362.46
8499.05
8739.41
8687.59
9476.75
8651.3
8397.52
8393.1
8384.52
8452
8597.33
9260.22
8502.79
8391.44
8379.84
8394.87
8338.54
8342.89
8362.29
8475.9
8920.91
8421.16
8355.32
8406.77
8355.72
8387.27
8559.32
8645.09
9027.38
10288.9
9744.01
9136.66
8571.47
8406.67
8437.67
8427.69
8393.57
8524.97
8671.6
8416.02
8447.36
8427.04
8526.31
8509.77
8505.7
8431.55
8387.32
8591.64
9311.46
8503.44
8379.29
8381.36
8400.93
8342.95
8366.93
8450.69
8608.5
9476.36
9461.98
9829.22
8796.82
9710.54
8798.36
8427.69
8465.72
8394.81
8359.99
8387.33
8411.75
8478.35
8781.37
8366.82
8394.75
8407.03
8366.82
8395.36
8396.71
8360.49
8416.71
8391.41
8586.87
8450.25
8369.77
8453.85
8391.24
8385.16
8401.77
8614.5
9647.14
9059.64
8513.51
8408.97
8426.91
8379.42
8417.85
8413.28
8457.26
8527.24
9181.71
8711.95
8603.11
9087.31
9580.31
8451.04
8457.06
8386.5
8446.77
8406
8422.66
8395.37
8559.99
8409.47
8384.86
8420.26
8342.19
8357.7
8345.83
8350.21
8387.12
8440.27
8798.08
8627.34
8967.79
8453.12
8365.26
8356.18
8342.54
8371.96
8337.23
8337.2
