train1 

0.4406

 0.4406

 0.1073 

0

 0 

0 

0 

0


train2 

0

 0

 0.1609 

0.6609 

0

 0

 0 

0


train3

 0

 0

 0 

0 

0.2456 

0.4406 

0.1073 

0


train4

 0 

0 

0.0805 

0 

0

 0 

0.1609 

0.3304


train5

 0 

0 

0

 0 

0.3685 

0 

0.1609 

0


test

   0.4406

 0

 0 

0 

0

 0.4406

 0.1073

 0
0.4406 0.4406 0.1073 0 0 0 0 0
0.123562   0.186289
1.70186  1.70186  -0.0872972  -0.663284  -0.663284  -0.663284  -0.663284  -0.663284
0 0 0.1609 0.6609 0 0 0 0
0.102725   0.217445
-0.472419  -0.472419  0.267539  2.56697  -0.472419  -0.472419  -0.472419  -0.472419
0 0 0 0 0.2456 0.4406 0.1073 0
0.0991875   0.152993
-0.648312  -0.648312  -0.648312  -0.648312  0.956986  2.23155  0.0530252  -0.648312
0 0 0.0805 0 0 0 0.1609 0.3304
0.071475   0.112174
-0.63718  -0.63718  0.0804555  -0.63718  -0.63718  -0.63718  0.7972  2.30825
0 0 0 0 0.3685 0 0.1609 0
0.066175   0.125821
-0.525944  -0.525944  -0.525944  -0.525944  2.40281  -0.525944  0.752853  -0.525944
0.4406 0 0 0 0 0.4406 0.1073 0
0.123562   0.186289
1.70186  -0.663284  -0.663284  -0.663284  -0.663284  1.70186  -0.0872972  -0.663284